name, links_page, parent_link
International Youth Meeting House,http://www.mdsm.pl/,auschwitz.org
Center for Dialogue and Prayer,http://www.cdim.pl/en,auschwitz.org
Jewish Museum and Synagogue in Oświęcim,http://ajcf.org/,auschwitz.org
The Auschwitz Preservation Society,http://tono.org.pl/,auschwitz.org
Roma Historical Institute,http://www.stowarzyszenie.romowie.net/aktualnosci-2.html,auschwitz.org
Foundation Of Memory Sites Near Auschwitz-Birkenau,http://auschwitz-podobozy.org/en/,auschwitz.org
Gemeinde ,http://www.guxhagen.de/,www.gedenkstaette-breitenau.de
Gedenkstätte Hadamar,http://www.gedenkstaette-hadamar.de/,www.gedenkstaette-breitenau.de
Dokumentations- und Informationszentrum Stadtallendorf (DIZ),http://www.diz-stadtallendorf.de/,www.gedenkstaette-breitenau.de
Gedenkstätte und Museum Trutzhain,http://www.gedenkstaette-trutzhain.de/,www.gedenkstaette-breitenau.de
Muna,http://www.muna-grebenhain.de/,www.gedenkstaette-breitenau.de
Arbeitskreises der NS-Gedenkstätten in Nordrhein-,http://www.ns-gedenkstaetten.de/nrw,www.gedenkstaette-breitenau.de
Gedenkstätten in Baden-Württemberg,http://www.gedenkstaetten-bw.de/,www.gedenkstaette-breitenau.de
Stiftung Brandenburgische Gedenkstätten,http://www.gedenkstaette-sachsenhausen.de/,www.gedenkstaette-breitenau.de
Stiftung Gedenkstätten Buchenwald und Mittelbau-Dora,http://www.buchenwald.de/,www.gedenkstaette-breitenau.de
KZ-Gedenkstätte Dachau,http://www.kz-gedenkstaette-dachau.de/,www.gedenkstaette-breitenau.de
KZ-Gedenkstätte Neuengamme,http://www.kz-gedenkstaette-neuengamme.de/,www.gedenkstaette-breitenau.de
Mahn- und Gedenkstätte ,http://www.ravensbrueck.de/,www.gedenkstaette-breitenau.de
"Dokumentations- und Informationszentrum (DIZ) Emslandlager, Papenburg",http://www.diz-emslandlager.de/index.html,www.gedenkstaette-breitenau.de
Haus der Wannsee-Konferenz - Gedenk- und Bildungsstätte - ,http://www.ghwk.de/,www.gedenkstaette-breitenau.de
KZ-Gedenkstätte Flossenbürg,http://www.gedenkstaette-flossenbuerg.de/,www.gedenkstaette-breitenau.de
Gedenkstätten für NS-Opfer - Übersicht,http://www.gedenkstaetten-uebersicht.de/,www.gedenkstaette-breitenau.de
Yad,http://www.yadvashem.org/,www.gedenkstaette-breitenau.de
Gedenkstätte und Museum Auschwitz-Birkenau,http://www.auschwitz.org.pl/,www.gedenkstaette-breitenau.de
Centre,http://www.oradour.org/,www.gedenkstaette-breitenau.de
United States Holocaust Memorial Museum (USA),http://www.ushmm.org/,www.gedenkstaette-breitenau.de
Stiftung Topographie des Terrors,http://www.topographie.de/,www.gedenkstaette-breitenau.de
ITS - Internationaler Suchdienst Bad ,http://www.its-arolsen.org/,www.gedenkstaette-breitenau.de
Arbeitskreis zur Erforschung des Nationalsozialismus in Schleswig-Holstein e.V.,http://www.akens.org/,www.gedenkstaette-breitenau.de
Arbeitsgemeinschaft zur Erforschung der Dachauer Zeitgeschichte e.V.,http://www.zbdachau.de/,www.gedenkstaette-breitenau.de
Ausstellung: Widerstand!? Evangelische Christinnen und Christen im Nationalsozialismus,http://www.evangelischer-widerstand.de/,www.gedenkstaette-breitenau.de
Online Gedenkstättenforum,http://www.gedenkstaettenforum.de,www.gedenkstaette-breitenau.de
Förderverein für Internationale Jugendbegegnung und Gedenkstättenarbeit in Dachau e.V.,http://www.foerderverein-dachau.de/,www.kz-gedenkstaette-dachau.de
International Youth Meeting Dachau,http://www.jugendbegegnung-dachau.de/?lang=en,www.kz-gedenkstaette-dachau.de
International Youth Guest House Dachau - Max Mannheimer Study Center,http://mmsz-dachau.de/,www.kz-gedenkstaette-dachau.de
Protestant Church of Reconciliation at the Memorial Site,http://www.versoehnungskirche-dachau.de/,www.kz-gedenkstaette-dachau.de
Verein z.B. Dachau,http://www.zbdachau.de/,www.kz-gedenkstaette-dachau.de
Förderverein für Internationale Jugendbegegnung und Gedenkstättenarbeit in Dachau e.V.,http://www.foerderverein-dachau.de/,www.kz-gedenkstaette-dachau.de
International Youth Meeting Dachau,http://www.jugendbegegnung-dachau.de/?lang=en,www.kz-gedenkstaette-dachau.de
International Youth Guest House Dachau - Max Mannheimer Study Center,http://mmsz-dachau.de/,www.kz-gedenkstaette-dachau.de
Karmel Heilig Blut Dachau,https://dachau.karmelocd.de/,www.kz-gedenkstaette-dachau.de
Protestant Church of Reconciliation at the Memorial Site,http://www.versoehnungskirche-dachau.de/,www.kz-gedenkstaette-dachau.de
Verein z.B. Dachau,http://www.zbdachau.de/,www.kz-gedenkstaette-dachau.de
Bergen-Belsen Memorial,http://www.bergenbelsen.de/,www.kz-gedenkstaette-dachau.de
Buchenwald Memorial,http://www.buchenwald.de/media_de/index.html,www.kz-gedenkstaette-dachau.de
Flossenbürg Concentration Camp Memorial Site,http://www.gedenkstaette-flossenbuerg.de/,www.kz-gedenkstaette-dachau.de
Mittelbau-Dora Concentration Camp Memorial,http://www.dora.de/media_de/index.html,www.kz-gedenkstaette-dachau.de
Neuengamme Concentration Camp Memorial,https://www.kz-gedenkstaette-neuengamme.de/en/?no_cache=1,www.kz-gedenkstaette-dachau.de
Ravensbrück Memorial Museum,http://www.ravensbrueck.de/mgr/index.html,www.kz-gedenkstaette-dachau.de
Memorial and Museum Sachsenhausen,http://www.stiftung-bg.de/gums/de/index.htm,www.kz-gedenkstaette-dachau.de
KZ-Gedenkstaette Breitenau,http://www.gedenkstaette-breitenau.de/,www.kz-gedenkstaette-dachau.de
Lern- und Gedenkort Schloss Hartheim,http://www.schloss-hartheim.at/index.php/en/,www.kz-gedenkstaette-dachau.de
Mauthausen Memorial,http://www.mauthausen-memorial.at/,www.kz-gedenkstaette-dachau.de
Dokumentationszentrum Oberer Kuhberg e.V.,http://www.dzokulm.telebus.de/,www.kz-gedenkstaette-dachau.de
Gedenkstättenforum,http://www.gedenkstaettenforum.de/,www.kz-gedenkstaette-dachau.de
Stiftung Bayerische Gedenkstätten,http://www.stiftung-bayerische-gedenkstaetten.de/,www.kz-gedenkstaette-dachau.de
Comité International de Dachau (CID),https://www.comiteinternationaldachau.com/en/,www.kz-gedenkstaette-dachau.de
Lagergemeinschaft Dachau e.V.,http://www.lagergemeinschaft-dachau.de/,www.kz-gedenkstaette-dachau.de
Stiftung Weiße Rose,http://www.weisse-rose-stiftung.de/,www.kz-gedenkstaette-dachau.de
Georg Elser Arbeitskreis,http://www.georg-elser-arbeitskreis.de/,www.kz-gedenkstaette-dachau.de
Working group of Memorial centres in Northrhine-Westphalia,http://www.ns-gedenkstaetten.de/,www.kz-gedenkstaette-dachau.de
Arbeitskreis zur Erforschung des Nationalsozialismus in Schleswig-Holstein,http://www.akens.org/,www.kz-gedenkstaette-dachau.de
"Dokumentations- und Informationszentrum (DIZ) Emslandlager, Papenburg",http://www.diz-emslandlager.de/dizen01.htm,www.kz-gedenkstaette-dachau.de
Stiftung Sächsische Gedenkstätten,https://en.stsg.de/cms/node/867,www.kz-gedenkstaette-dachau.de
Landesarbeitsgemeinschaft der Gedenkstätten und Gedenkstätteninitiativen in Baden-Württemberg,http://www.gedenkstaetten-bw.de/,www.kz-gedenkstaette-dachau.de
Memorial to the Murdered Jews of Europe,http://www.stiftung-denkmal.de/,www.kz-gedenkstaette-dachau.de
Topography of Terror Foundation,http://www.topographie.de/,www.kz-gedenkstaette-dachau.de
Documentation Centre of Austrian Resistance (DÖW),http://www.doew.at/,www.kz-gedenkstaette-dachau.de
International Tracing Service (ITS) in Bad Arolsen,http://www.its-arolsen.org/en/homepage/index.html,www.kz-gedenkstaette-dachau.de
National Museum in Oswiecim (Auschwitz),http://www.auschwitz.org.pl/,www.kz-gedenkstaette-dachau.de
Yad Vashem,http://www.yadvashem.org/,www.kz-gedenkstaette-dachau.de
United States Holocaust Memorial Museum,http://www.ushmm.org/,www.kz-gedenkstaette-dachau.de
http://www.sztetl.org.pl/,http://www.sztetl.org.pl/,www.memorialdelashoah.org
http://www.stiftung-denkmal.de,http://www.stiftung-denkmal.de,www.memorialdelashoah.org
http://www.topographie.de/,http://www.topographie.de/,www.memorialdelashoah.org
http://www.annefrank.nl,http://www.annefrank.nl,www.memorialdelashoah.org
http://www.dhm.de/,http://www.dhm.de/,www.memorialdelashoah.org
http://www.gfh.org.il/,http://www.gfh.org.il/,www.memorialdelashoah.org
http://www.jmw.at,http://www.jmw.at,www.memorialdelashoah.org
http://www.cicb.be/,http://www.cicb.be/,www.memorialdelashoah.org
http://www.memorial-caen.fr/fr/index.php,http://www.memorial-caen.fr/fr/index.php,www.memorialdelashoah.org
http://www.resistance-en-isere.com/,http://www.resistance-en-isere.com/,www.memorialdelashoah.org
http://www.verzetsmuseum.org,http://www.verzetsmuseum.org,www.memorialdelashoah.org
http://www.bethshalom.com,http://www.bethshalom.com,www.memorialdelashoah.org
http://www.ushmm.org,http://www.ushmm.org,www.memorialdelashoah.org
http://www.yadvashem.org/,http://www.yadvashem.org/,www.memorialdelashoah.org
http://www.hollandscheschouwburg.nl,http://www.hollandscheschouwburg.nl,www.memorialdelashoah.org
http://www.jewishmuseum.cz/aindex.htm,http://www.jewishmuseum.cz/aindex.htm,www.memorialdelashoah.org
http://www.juedisches-museum-berlin.de/site/DE/homepage.php,http://www.juedisches-museum-berlin.de/site/DE/homepage.php,www.memorialdelashoah.org
http://www.jmw.at/,http://www.jmw.at/,www.memorialdelashoah.org
http://www.jhm.nl/,http://www.jhm.nl/,www.memorialdelashoah.org
http://www.jewishmuseum.org.uk/,http://www.jewishmuseum.org.uk/,www.memorialdelashoah.org
http://www.ljcc.org.uk/,http://www.ljcc.org.uk/,www.memorialdelashoah.org
http://www.afz.ethz.ch/,http://www.afz.ethz.ch/,www.memorialdelashoah.org
http://www.doew.at/,http://www.doew.at/,www.memorialdelashoah.org
http://www.dhm.de/,http://www.dhm.de/,www.memorialdelashoah.org
http://www.auschwitz.be/,http://www.auschwitz.be/,www.memorialdelashoah.org
http://www.library.yale.edu/testimonies/,http://www.library.yale.edu/testimonies/,www.memorialdelashoah.org
http://www.holocaust-trc.org/,http://www.holocaust-trc.org/,www.memorialdelashoah.org
http://www.lbi.com/,http://www.lbi.com/,www.memorialdelashoah.org
http://www.topographie.de/,http://www.topographie.de/,www.memorialdelashoah.org
http://www.rachelnet.net/rachelnet/index.htm,http://www.rachelnet.net/rachelnet/index.htm,www.memorialdelashoah.org
http://www.uni-heidelberg.de/institute/sonst/aj/,http://www.uni-heidelberg.de/institute/sonst/aj/,www.memorialdelashoah.org
http://www.adl.org,http://www.adl.org,www.memorialdelashoah.org
http://www.amcha.org/indexEn.htm,http://www.amcha.org/indexEn.htm,www.memorialdelashoah.org
http://www.asf-ev.de/,http://www.asf-ev.de/,www.memorialdelashoah.org
http://www.deportati.it,http://www.deportati.it,www.memorialdelashoah.org
http://www.remember.org/,http://www.remember.org/,www.memorialdelashoah.org
http://diaspora.org.il/The_Chamber,http://diaspora.org.il/The_Chamber,www.memorialdelashoah.org
http://www.fndirp.asso.fr,http://www.fndirp.asso.fr,www.memorialdelashoah.org
http://www.auschwitz.be/,http://www.auschwitz.be/,www.memorialdelashoah.org
http://www.fmd.asso.fr,http://www.fmd.asso.fr,www.memorialdelashoah.org
http://www.fondationshoah.org/,http://www.fondationshoah.org/,www.memorialdelashoah.org
http://www.gedenkdienst.at/,http://www.gedenkdienst.at/,www.memorialdelashoah.org
http://www.holocaust-trc.org/,http://www.holocaust-trc.org/,www.memorialdelashoah.org
http://www.claims.state.ny.us/,http://www.claims.state.ny.us/,www.memorialdelashoah.org
http://www.exilordinaire.org,http://www.exilordinaire.org,www.memorialdelashoah.org
http://www.dorot.fr,http://www.dorot.fr,www.memorialdelashoah.org
http://www.memoire2000.asso.fr/,http://www.memoire2000.asso.fr/,www.memorialdelashoah.org
http://www.wiesenthal.com/,http://www.wiesenthal.com/,www.memorialdelashoah.org
http://www.territoires-memoire.be/,http://www.territoires-memoire.be/,www.memorialdelashoah.org
http://www.genami.org,http://www.genami.org,www.memorialdelashoah.org
http://www.convoinumero7.org,http://www.convoinumero7.org,www.memorialdelashoah.org
http://www.holocausttaskforce.org/,http://www.holocausttaskforce.org/,www.memorialdelashoah.org
http://www.buchenwald-dora.fr/,http://www.buchenwald-dora.fr/,www.memorialdelashoah.org
http://www.deportesdelyon.fr/,http://www.deportesdelyon.fr/,www.memorialdelashoah.org
http://www.remember.org/jacobs/,http://www.remember.org/jacobs/,www.memorialdelashoah.org
http://www.nizkor.org/faqs/auschwitz/,http://www.nizkor.org/faqs/auschwitz/,www.memorialdelashoah.org
http://www.buchenwald.de/,http://www.buchenwald.de/,www.memorialdelashoah.org
http://www.mauthausen-memorial.gv.at/,http://www.mauthausen-memorial.gv.at/,www.memorialdelashoah.org
http://www.ravensbrueck.de,http://www.ravensbrueck.de,www.memorialdelashoah.org
http://www.cc-pays-averdun.fr/saverdun/pages/vernet/accueil.htm,http://www.cc-pays-averdun.fr/saverdun/pages/vernet/accueil.htm,www.memorialdelashoah.org
http://www.campdesmilles.org,http://www.campdesmilles.org,www.memorialdelashoah.org
http://www.struthof.fr,http://www.struthof.fr,www.memorialdelashoah.org
http://www.bergenbelsen.de/fr/,http://www.bergenbelsen.de/fr/,www.memorialdelashoah.org
http://www.adl.org,http://www.adl.org,www.memorialdelashoah.org
http://www.afz.ethz.ch/,http://www.afz.ethz.ch/,www.memorialdelashoah.org
http://www.alliancefr.com/,http://www.alliancefr.com/,www.memorialdelashoah.org
http://www.adl.org/braun/front-dimensions.html,http://www.adl.org/braun/front-dimensions.html,www.memorialdelashoah.org
http://bip.gross-rosen.eu/,http://bip.gross-rosen.eu/,en.gross-rosen.eu/
http://www.umwd.dolnyslask.pl/,http://www.umwd.dolnyslask.pl/,en.gross-rosen.eu/
Bewusstseinsregion Mauthausen – Gusen – St. Georgen,http://www.bewusstseinsregion.at/,www.mauthausen-memorial.org/en
Comité International de Mauthausen (CIM),http://www.cim-info.org/,www.mauthausen-memorial.org/en
Documentation Centre of Austrian Resistance (DÖW),http://www.doew.at/,www.mauthausen-memorial.org/en
Erinnern.at – National Socialism and Holocaust: Remembrance and Future,http://www.erinnern.at/,www.mauthausen-memorial.org/en
EUROM - European Observatory on Memories,http://europeanmemories.net/,www.mauthausen-memorial.org/en
Future Fund of the Republic of Austria,http://www.zukunftsfonds-austria.at/,www.mauthausen-memorial.org/en
Gusen Memorial Committee,http://www.gusen.org/en,www.mauthausen-memorial.org/en
Hartheim Castle,http://www.schloss-hartheim.at/,www.mauthausen-memorial.org/en
Institute of Contemporary History (University of Vienna),http://www.univie.ac.at/zeitgeschichte/,www.mauthausen-memorial.org/en
Mauthausen Committee Austria (MKÖ),http://www.mkoe.at/,www.mauthausen-memorial.org/en
Memorial Ebensee,http://www.memorial-ebensee.at/,www.mauthausen-memorial.org/en
National Fund of the Republic of Austria for Victims of National Socialism,https://nationalfonds.org/,www.mauthausen-memorial.org/en
Bergen-Belsen,http://www.bergen-belsen.de/en/,www.struthof.fr
Buchenwald,http://www.buchenwald.de/,www.struthof.fr
Dachau,http://www.kz-gedenkstaette-dachau.de/,www.struthof.fr
Flossenbürg,http://www.gedenkstaette-flossenbuerg.de/,www.struthof.fr
Mittelbau-Dora,http://www.dora.de/,www.struthof.fr
Neuengamme,http://www.hamburg.de/Neuengamme/,www.struthof.fr
Ravensbrück,http://www.ravensbrueck.de/mgr/index.html,www.struthof.fr
Sachsenhausen,http://www.stiftung-bg.de/gums/,www.struthof.fr
Osthofen,http://www.projektosthofen-gedenkstaette.de/,www.struthof.fr
Mauthausen,http://www.mauthausen-memorial.gv.at,www.struthof.fr
Mémorial de Ebensee (camp annexe de Mauthausen),http://www.memorial-ebensee.at/,www.struthof.fr
Auschwitz,http://www.auschwitz-muzeum.oswiecim.pl,www.struthof.fr
Gross Rosen,http://www.gross-rosen.pl/,www.struthof.fr
Majdanek,http://www.majdanek.pl/,www.struthof.fr
Stutthof,http://www.stutthof.pl/,www.struthof.fr
Orte der Erinnerung,www.orte-der-erinnerung.de,http://www.stiftung-bg.de
Internationales Sachsenhausen Komitee,www.internationales-sachsenhausen-komitee.eu,http://www.stiftung-bg.de
Gedenkstättenforum der Stiftung Topographie des Terrors,www.gedenkstaettenforum.de,http://www.stiftung-bg.de
Homosexuelle im KZ Sachsenhausen,www.rosa-winkel.de,http://www.stiftung-bg.de
Task Force for International Cooperation on Holocaust Education Remembrance and Research,www.holocausttaskforce.org ,http://www.stiftung-bg.de
Arbeitskreis NS-Gedenkstätten in NRW e.V.,www.ns-gedenkstaetten.de,http://www.stiftung-bg.de
"Denkzeichen - Ein Kunstprojekt der ""Euthanasie""-Gedenkstätte",www.denkzeichen.de,http://www.stiftung-bg.de
Dokumentationszentrum Reichparteitagsgelände Nürnberg,www.museen.nuernberg.de,http://www.stiftung-bg.de
Gedenken in BeNeLux,www.gedenken-in-benelux.de,http://www.stiftung-bg.de
Shoa.de - Ein Projekt zu Shoah Holocaust Antisemitismus Drittes Reich und Zweiter Weltkrieg,www.Shoa.de,http://www.stiftung-bg.de
Jüdisches Zentrum Auschwitz,www.ajcf.pl,http://www.stiftung-bg.de
Stiftung Sächsische Gedenkstätten,www.stsg.de,http://www.stiftung-bg.de
Lagergemeinschaft Ravensbrück Freundeskreis e. V.,www.lg-ravensbrueck.de,http://www.stiftung-bg.de
Museum – Memorial Site in Bełżec,http://www.belzec.eu/pl,http://www.sobibor-memorial.eu/en
State Museum at Majdanek,http://www.majdanek.eu/pl,http://www.sobibor-memorial.eu/en
Muzeum Piaśnickie w Wejherowie,http://muzeumpiasnickie.pl/,http://stutthof.org
European Shoah Legacy Institute (ESLI),http://shoahlegacy.org/,www.pamatnik-terezin.cz
Institute of Terezín Initiative,http://www.terezinstudies.cz/,www.pamatnik-terezin.cz
International Holocaust Remembrance Alliance,https://www.holocaustremembrance.com/,www.pamatnik-terezin.cz
Jewish Community of Prague,http://www.kehilaprag.cz/mambo/index.php?option=com_content&task=blogcategory&id=100&Itemid=81,www.pamatnik-terezin.cz
Jewish Museum in Prague,http://www.jewishmuseum.cz/,www.pamatnik-terezin.cz
Memory of Nations,http://www.pametnaroda.cz/?locale=en_GB,www.pamatnik-terezin.cz
Museum of Slovak National Uprising in Banská Bystrica,http://www.muzeumsnp.sk/,www.pamatnik-terezin.cz
Project Holocaust,http://www.holocaust.cz/en/main-2/,www.pamatnik-terezin.cz
Synagogue in Turnov,http://www.synagoga-turnov.cz/en/,www.pamatnik-terezin.cz
The Institute for the Study of Totalitarian Regimes,http://old.ustrcr.cz/en,www.pamatnik-terezin.cz
The Lidice Memorial,http://www.lidice-memorial.cz/default_en.aspx,www.pamatnik-terezin.cz
The Living Memory,http://www.zivapamet.cz/index.php?id=630,www.pamatnik-terezin.cz
The Auschwitz-Birkenau Memorial and State Museum,http://auschwitz.org/en/,www.pamatnik-terezin.cz
Muzeum i Miejsce Pamięci w Bełżcu,http://www.belzec.eu/pl,http://www.treblinka-muzeum.eu
Gross Rosen,https://www.gross-rosen.eu/,http://www.treblinka-muzeum.eu
State Museum at Majdanek,http://www.majdanek.eu/pl,http://www.treblinka-muzeum.eu
auschwitz,http://www.auschwitz.org/,http://www.treblinka-muzeum.eu
Sobibor Memorial,http://www.sobibor-memorial.eu/pl,http://www.treblinka-muzeum.eu
Muzeum Stutthof w Sztutowie,http://stutthof.org/,http://www.treblinka-muzeum.eu
Straty,http://www.straty.pl/index.php/en/,http://www.treblinka-muzeum.eu
Polscy Sprawiedliwi,http://www.sprawiedliwi.org.pl/,http://www.treblinka-muzeum.eu
Polskie Stowarzyszenie im. Janusza Korczaka,http://www.pskorczak.org.pl/,http://www.treblinka-muzeum.eu
Pamięć Treblinki,http://pamiectreblinki.pl/,http://www.treblinka-muzeum.eu
Airbornemuseum Oosterbeek,http://www.airbornemuseum.nl/index.html,www.kampwesterbork.nl
Anne Frank Huis Amsterdam,http://www.annefrank.org/nl/index.html,www.kampwesterbork.nl
Hollandsche Schouwburg Amsterdam,http://www.hollandscheschouwburg.nl/index.html,www.kampwesterbork.nl
Joods Historisch Museum Amsterdam,http://www.jhm.nl/index.html,www.kampwesterbork.nl
Liberty Park Oorlogsmuseum Overloon,http://www.oorlogsmuseum-overloon.nl/en/index.html,www.kampwesterbork.nl
Markt 12 Onderduiken Verzet Vrijheid Aalten,http://www.markt12.nl/index.html,www.kampwesterbork.nl
Museon’s Gravenhage,http://www.museon.nl/nl/index.html,www.kampwesterbork.nl
Museum Bronbeek Arnhem,http://www.defensie.nl/cdc/bronbeek/museum,www.kampwesterbork.nl
Nationaal Bevrijdingsmuseum Groesbeek,http://www.bevrijdingsmuseum.nl/index.html,www.kampwesterbork.nl
Nationaal Monument Kamp Amersfoort,http://www.kampamersfoort.nl/p/start,www.kampwesterbork.nl
Nationaal Monument Kamp Vught,http://www.nmkampvught.nl/index.html,www.kampwesterbork.nl
Museum Rotterdam '40 '45 Nu,http://www.40-45nu.nl/,www.kampwesterbork.nl
Verzetsmuseum Amsterdam,https://www.verzetsmuseum.org/museum/nl/museum,www.kampwesterbork.nl
Verzetsmuseum Friesland Leeuwarden,http://www.friesverzetsmuseum.nl/,www.kampwesterbork.nl
"Etty Hillesum Centrum, Deventer",http://www.ettyhillesumcentrum.nl/nl/,www.kampwesterbork.nl
Etty Hillesum Onderzoekscentrum Middelburg,http://www.ehoc.nl,www.kampwesterbork.nl
Bevrijdingsmuseum Zeeland,https://www.bmzeeland.nl/index.php/nl/,www.kampwesterbork.nl
Centrum voor Holocaust en Genocide Studies,http://www.chgs.nl,www.kampwesterbork.nl
Geheugen van Nederland,http://www.geheugenvannederland.nl/,www.kampwesterbork.nl
Nederlands Instituut voor Oorlogs- Holocaust- en Genocidestudies,http://www.niod.nl,www.kampwesterbork.nl
Stichting Musea en Herinneringscentra 40-45,http://smh-40-45.nl/,www.kampwesterbork.nl
Comité Herdenking Februaristaking 1941,http://februaristaking.nl/,www.kampwesterbork.nl
Comité Vrouwenconcentratiekamp Ravensbrück,http://www.ravensbruck.nl,www.kampwesterbork.nl
Nationaal Auschwitz Comité,http://www.auschwitz.nl,www.kampwesterbork.nl
Sinaicentrum,https://www.sinaicentrum.nl/,www.kampwesterbork.nl
Stichting 1940-1945,http://www.st4045.nl,www.kampwesterbork.nl
Stichting Centrum '45,http://www.centrum45.nl,www.kampwesterbork.nl
Stichting Herdenking 15 augustus 1945,http://www.indieherdenking.nl/nl/,www.kampwesterbork.nl
Stichting Oranjehotel,http://www.oranjehotel.org,www.kampwesterbork.nl
Stichting Sobibor,http://www.sobibor.org/,www.kampwesterbork.nl
Stichting Vriendenkring Mauthausen,http://www.mauthausen.nl,www.kampwesterbork.nl
Stichting Vriendenkring Neuengamme,http://www.vriendenkringneuengamme.nl,www.kampwesterbork.nl
Stichting Vriendenkring van oud-Dachauers,http://www.dachau.nl/,www.kampwesterbork.nl
Stichting Werkgroep Herkenning,http://www.kampwesterbork.nl/http://index.html,www.kampwesterbork.nl
Synagogen Noord en Oost Nederland,http://www.synagogen-noord-oost.nl,www.kampwesterbork.nl
Vereniging Bevrijdingskinderen,http://www.kampwesterbork.nl/http://index.html,www.kampwesterbork.nl
Vereniging Joodse OorlogsKinderen (JOK,http://www.j-o-k.nl,www.kampwesterbork.nl
Vereniging Kinderen van Verzetsdeelnemers 1940-1945,http://www.verzetskinderen.nl,www.kampwesterbork.nl
Gedenkorte Europa,http://www.gedenkorte-europa.eu/,www.kampwesterbork.nl
Gedenkstätten u. Museen zu 1939-1945 in Europa,http://memorialmuseums.net/,www.kampwesterbork.nl
Wege der Erinnerung in Europa,http://www.lescheminsdelamemoire.net/,www.kampwesterbork.nl
NS-Gedenkstätten in Deutschland,http://www.ns-gedenkstaetten.de/gedenkstaetten-bundesweit.html,www.kampwesterbork.nl
Stiftung Topographie des Terrors Berlin,http://www.topographie.de/,www.kampwesterbork.nl
der Stiftung Topographie des Terrors Berlin,http://www.gedenkstaettenforum.de/,www.kampwesterbork.nl
European Resistance Archive,http://www.resistance-archive.org/,www.kampwesterbork.nl
Wegweiser zu Gedenkstätten in den Niederlanden Belgien und Luxemburg,http://www.gedenken-in-benelux.de/,www.kampwesterbork.nl
Tweedewereldoorlog,http://www.tweedewereldoorlog.nl/,www.kampwesterbork.nl
Anne Frank Zentrum,https://www.annefrank.de/,www.annefrank.org
Anne Frank Trust,https://annefrank.org.uk/,www.annefrank.org
Centro Ana Frank,http://centroanafrank.com.ar/,www.annefrank.org
Anne Frank Center for Mutual Respect,https://www.annefrank.com/,www.annefrank.org
Jüdisches Museum der Stadt Frankfurt am Main,http://www.juedischesmuseum.de/,www.fritz-bauer-institut.de
Leo Baeck Institute London,http://www.leobaeck.co.uk/,www.fritz-bauer-institut.de
Simon-Dubnow-Institut für jüdische Geschichte und Kultur an der Universität Leipzig,http://www.dubnow.de/,www.fritz-bauer-institut.de
"Bildungsstätte Anne Frank, Frankfurt am Main",http://www.jbs-anne-frank.de/,www.fritz-bauer-institut.de
"Gedenkstättenreferat der Stiftung Topographie des Terrors, Berlin",http://www.topographie.de/,www.fritz-bauer-institut.de
Zentrum für Antisemitismusforschung TU Berlin,http://zfa.kgw.tu-berlin.de/,www.fritz-bauer-institut.de
"The American Jewish Committee, Berlin",http://www.ajcgermany.org/,www.fritz-bauer-institut.de
Anne Frank Zentrum Berlin,http://www.annefrank.de/,www.fritz-bauer-institut.de
KZ- und Euthanasie-Gedenkstätten in der BRD,http://www.gedenkstaettenforum.de/,www.fritz-bauer-institut.de
"Conference on Jewish Material Claims Against Germany, New York",http://www.claimscon.org/,www.fritz-bauer-institut.de
"Conference on Jewish Material Claims Against Germany, Frankfurt am Main",http://www.claimscon.de/,www.fritz-bauer-institut.de
"United States Holocaust Memorial Museum, Washington D.C.",http://www.ushmm.org/,www.fritz-bauer-institut.de
"The Wiener Library, London",http://www.wienerlibrary.co.uk/,www.fritz-bauer-institut.de
"Państwowe Muzeum Auschwitz-Birkenau, Oświęcim",http://www.auschwitz.org.pl/,www.fritz-bauer-institut.de
"Yad Vashem, Jerusalem",http://www.yadvashem.org/,www.fritz-bauer-institut.de
"Beit Lohamei Haghetaot/The Ghetto Fighters’ House, Israel",http://www.gfh.org.il/,www.fritz-bauer-institut.de
Yad Vashem,http://www.yadvashem.org/,hdke.hu
Memorial and Museum Auschwitz-Birkenau,http://auschwitz.org/en/,hdke.hu
United States Holocause Memorial Museum,https://www.ushmm.org/,hdke.hu
International Holocaust Remembrance Alliance,http://www.holocaustremembrance.com/,hdke.hu
USC Shoah Foundation,https://sfi.usc.edu/,hdke.hu
The Institute for the Study of Totalitarian Regimes,http://old.ustrcr.cz/en/the-institute,old.ustrcr.cz
Security Services Archive,http://www.abscr.cz/en/,old.ustrcr.cz
Czechoslovak Documentation Centre,http://www.csds.cz/,old.ustrcr.cz
Czech Christian Academy,http://www.krestanskaakademie.cz/,old.ustrcr.cz
European Shoah Legacy Institute,http://www.shoahlegacy.org/,old.ustrcr.cz
The Czech - German Future Fund,http://www.cron.cz/,old.ustrcr.cz
Libri prohibiti,http://libpro.cts.cuni.cz/EN/index_en.html,old.ustrcr.cz
Museum of Romani Culture,http://www.rommuz.cz/index.php?option=com_content&task=view&id=147&Itemid=51,old.ustrcr.cz
Terezín Memorial,http://www.pamatnik-terezin.cz/en?lang=en,old.ustrcr.cz
The Vojna Memorial,http://www.muzeum-pribram.cz/jazyky/anglicky/vojnamemorial/vojnamemorial.html,old.ustrcr.cz
The Office for the Documentation and the Investigation of the Crimes of Communism Police of the Czech Republic,http://www.mvcr.cz/policie/udv/english/index.html,old.ustrcr.cz
Jewish Museum in Prague,http://www.jewishmuseum.cz/aindex.htm,old.ustrcr.cz
Platform of European Memory and Conscience,http://www.memoryandconscience.eu/,old.ustrcr.cz
Archiv Hoover Institution,http://www.hoover.org/hila/,old.ustrcr.cz
Davis Center for Russian and Eurasian Studies at Harvard University,http://daviscenter.fas.harvard.edu/,old.ustrcr.cz
Estonian Museum of the Occupations,http://www.okupatsioon.ee/english/,old.ustrcr.cz
Estonian War Museum,http://www.esm.ee/?lang=en,old.ustrcr.cz
Estonian Institute of Historical Memory,http://www.mnemosyne.ee/lang/en-us,old.ustrcr.cz
Genocide and Resistance Research Centre of Lithuania,http://www.genocid.lt/centras/en/,old.ustrcr.cz
House of Terror,http://www.terrorhaza.hu/en/index_2.html,old.ustrcr.cz
Historical Archives of the Hungarian State Security,http://www.abtl.hu/,old.ustrcr.cz
Maďarský ústav 20. století,http://www.xxszazadintezet.hu/,old.ustrcr.cz
Memorial,http://www.memo.ru/,old.ustrcr.cz
Memorial to the Murdered Jews of Europe,http://www.stiftung-denkmal.de/en,old.ustrcr.cz
Cold War International History Project,http://cwihp.si.edu/,old.ustrcr.cz
The International Commission for the Evaluation of the Crimes of the Nazi and Soviet Occupation Regimes in Lithuania,http://www.komisija.lt/,old.ustrcr.cz
United States Holocaust Memorial Museum,http://www.ushmm.org/,old.ustrcr.cz
The Museum of the Occupation of Latvia,http://www.occupationmuseum.lv/,old.ustrcr.cz
Auschwitz-Birkenau Museum,http://en.auschwitz.org/m/,old.ustrcr.cz
The Cold War Museum,http://www.coldwar.org/,old.ustrcr.cz
Warsaw Rising Museum,http://www.1944.pl/,old.ustrcr.cz
The Doomed Soldiers ⁄ Polish Underground Soldiers 1944–1963 –  The Untold Story,http://www.doomedsoldiers.com/torture-methods-of-ub.html,old.ustrcr.cz
The National Security Archive,http://www.gwu.edu/~nsarchiv/,old.ustrcr.cz
The Institute for the Investigation of Communist Crimes in Romania,http://www.crimelecomunismului.ro/en/,old.ustrcr.cz
The National Council for the Study of the Securitate Archives,http://www.cnsas.ro/,old.ustrcr.cz
The Global Museum on Communism,http://victimsofcommunism.org/,old.ustrcr.cz
The Memorial of the Victims of Communism and of the Resistance,http://www.memorialsighet.ro/,old.ustrcr.cz
Russia - Archives,http://www.rusarchives.ru/federal/list.shtml,old.ustrcr.cz
Cold War Studies Centre,http://www.lse.ac.uk/collections/CWSC/,old.ustrcr.cz
The KARTA Center,http://www.karta.org.pl/,old.ustrcr.cz
The Open Society Archives,http://www.ceu.hu/unit/open-society-archives,old.ustrcr.cz
Federal Commissioner for the Records of the National Security Services of the former DDR,http://www.bstu.bund.de/,old.ustrcr.cz
The comittee for disclosing and announcing affiliation of bulgarian citisens to the State Security and the intelligence services of the Bulgarian national Army,http://www.comdos.bg/,old.ustrcr.cz
The Institute of National Remembrance,http://www.ipn.gov.pl/,old.ustrcr.cz
The Institute of National Memory,http://www.upn.gov.sk/,old.ustrcr.cz
The Institute for the History of the 1956 Hungarian Revolution,http://www.rev.hu/,old.ustrcr.cz
The Holocaust Education Resource Center,http://www.wsherc.org/,old.ustrcr.cz
Yad Vashem - The Holocaust Martyrs' and Heroes' Remembrance Authority,http://www.yadvashem.org/,old.ustrcr.cz
KGB DOCUMENTS ON-LINE,http://www.kgbdocuments.eu/,old.ustrcr.cz
"KGB veikla Lietuvoje, visa informacija ir dokumentai",http://www.kgbveikla.lt/,old.ustrcr.cz
Short long journey,http://www.kratkadlouhacesta.cz/main.php?lang=en,old.ustrcr.cz
Digital Library of Staliniana,http://images.library.pitt.edu/s/stalinka,old.ustrcr.cz
Odboj Jičínsko,http://odboj.jicinsko.cz/,old.ustrcr.cz
Post Bellum,http://www.postbellum.cz/,old.ustrcr.cz
Pražský web pro studenou válku,http://www.praguecoldwar.cz/,old.ustrcr.cz
Strona o Żubrach zgrupowaniu w II Obwodzie AK,zubry1944.pl,www.muzeum-ak.pl
Grupa Rekonstrukcji Historycznej AK,grh-ak-murawa.almalo.edu.pl,www.muzeum-ak.pl
Światowy Związek Żołnierzy Armii Krajowej Zarząd Okręgu Podkarpackiego,www.akrzeszow.pl,www.muzeum-ak.pl
Truth About Camps,en.truthaboutcamps.eu,www.muzeum-ak.pl
Instytut Pamięci Narodowej,ipn.gov.pl,www.muzeum-ak.pl
Fondation pour la Mémoire de la Déportation  - Livre-mémorial,www.bddm.org/liv/index_liv.php,www.ghwk.de
Groß-Rosen: Database of the dead,http://en.gross-rosen.eu/baza-zmarlych-wiezniow/,www.ghwk.de
The Memorial Book of the Federal Archives for the Victims of the Persecution of Jews in Germany (1933-1945),http://www.bundesarchiv.de/gedenkbuch/index.html.en,www.ghwk.de
Mémorial de la Shoah - Rechercher une personne,http://www.memorialdelashoah.org/index.php/en/archives-and-documentation/search-for-a-person/search-for-a-person-victim-or-resistant,www.ghwk.de
Book of the Dead Sachsenhausen 1936 - 1945,http://www.stiftung-bg.de/totenbuch/,www.ghwk.de
Yad Vashem - The Central Database of Shoah Victims' Names,http://db.yadvashem.org/names/search.html?language=en,www.ghwk.de
Visual History Archive,http://sfi.usc.edu/vha/about,www.ghwk.de
Voices of the Holocaust,http://voices.iit.edu/,www.ghwk.de
Aktion Kinder des Holocaust,http://www.akdh.net,www.gedenkstaettenforum.de
Aktion Sühnezeichen Friedensdienste e.V.,http://www.asf-ev.de,www.gedenkstaettenforum.de
Anne Frank Zentrum Berlin,http://www.annefrank.de,www.gedenkstaettenforum.de
Antifaschistische Mahn- und Gedenkstätte in Lieberose,http://www.mwfk.brandenburg.de/cms/detail.php?id=bb2.c.519702.de,www.gedenkstaettenforum.de
Beit Ben Yehuda - International Meeting Centre in Jerusalem,http://www.beit-ben-yehuda.org,www.gedenkstaettenforum.de
Beit Hatfutsot: The Museum of the Jewish People - BethHatefutsoth,http://www.bh.org.il,www.gedenkstaettenforum.de
Beit Theresienstadt / Beit Terezin,http://www.bterezin.org.il,www.gedenkstaettenforum.de
Berliner Geschichtswerkstatt e.V.,http://www.berliner-geschichtswerkstatt.de,www.gedenkstaettenforum.de
Bełżec Memorial Site,http://www.belzec.org.pl/,www.gedenkstaettenforum.de
Bibliothek der Stiftung Topographie des Terrors,http://www.topographie.de/topographie-des-terrors/bibliothek,www.gedenkstaettenforum.de
Bibliothek des Dokumentationszentrums NS-Zwangsarbeit Berlin-Schöneweide,http://www.topographie.de/dz-ns-zwangsarbeit/bibliothek,www.gedenkstaettenforum.de
Bildungs- und Dokumentationsstätte Lindenstraße 54 in Potsdam,http://www.mwfk.brandenburg.de/cms/detail.php?id=bb2.c.519720.de,www.gedenkstaettenforum.de
"Bildungs- und Gedenkstätte ""Opfer der NS-Psychiatrie"" in Lüneburg",http://www.pk.lueneburg.de/gedenkstaette,www.gedenkstaettenforum.de
"Die Auszahlungsprogramme der Stiftung ""Erinnerung, Verantwortung und Zukunft""",http://www.stiftung-evz.de/ns-zwangsarbeit,www.gedenkstaettenforum.de
Dokumentation Obersalzberg,http://www.obersalzberg.de,www.gedenkstaettenforum.de
Dokumentation- und Lernort Baracke Wilhemine	,http://www.baracke-wilhelmine.de,www.gedenkstaettenforum.de
Dokumentations- und Gedenkstätte Sandbostel e.V. (Stalag X B ),http://www.dokumentationsstaette-sandbostel.de,www.gedenkstaettenforum.de
Dokumentations- und Informationszentrum (DIZ) Torgau,http://www.stsg.de/cms/torgau/startseite,www.gedenkstaettenforum.de
Dokumentations- und Informationszentrum für Rassismusforschung DIR e.V.,http://web.uni-marburg.de/dir,www.gedenkstaettenforum.de
Dokumentations- und Kulturzentrum Deutscher Sinti und Roma,http://www.sinti-und-roma.de,www.gedenkstaettenforum.de
Dokumentations- und Kulturzentrum Deutscher Sinti und Roma,http://www.sintiundroma.de,www.gedenkstaettenforum.de
Dokumentationsarchiv des österreichischen Widerstandes,http://www.doew.at,www.gedenkstaettenforum.de
Dokumentationsstätte Konzentrationslager Hersbruck e. V.,http://www.kz-hersbruck-info.de,www.gedenkstaettenforum.de
Dokumentationsstelle Dresden,http://www.dokst.de,www.gedenkstaettenforum.de
Dokumentationszentrum Ehemaliges Reichsparteitagsgelände Nürnberg,http://www.museen.nuernberg.de/dokuzentrum,www.gedenkstaettenforum.de
Dokumentationszentrum NS-Zwangsarbeit Berlin-Schöneweide,http://www.topographie.de/dz-ns-zwangsarbeit/,www.gedenkstaettenforum.de
Dokumentationszentrum Oberer Kuhberg e.V. - KZ-Gedenkstätte-,http://www.dzokulm.telebus.de,www.gedenkstaettenforum.de
Ehemaliges KZ Kochendorf,http://www.lpb.bwue.de/gedenk/gedenkstaetten/de/Broschuere/kochendorf.htm,www.gedenkstaettenforum.de
Erinnern für die Zukunft - Neue Wege des Gedenkens an die NS-Opfer in Mariahilf,http://www.erinnern-fuer-die-zukunft.at,www.gedenkstaettenforum.de
Erinnern für die Zukunft e.V.,http://www.erinnernfuerdiezukunft.de,www.gedenkstaettenforum.de
Erinnern für Gegenwart und Zukunft,http://www.erinnern-online.de,www.gedenkstaettenforum.de
erinnern.at - Verein Nationalsozialismus und Holocaust: Gedächtnis und Gegenwart,http://www.erinnern.at,www.gedenkstaettenforum.de
Erinnerungs- und Forschungsstätte Johann Georg Elser,http://www.lpb.bwue.de/gedenk/gedenkstaetten/de/Broschuere/Koenigsbronn.htm,www.gedenkstaettenforum.de
Erinnerungskultur & Geschichtspolitik (Memorama),http://www.memorama.de,www.gedenkstaettenforum.de
Erinnerungsort Topf & Söhne - Die Ofenbauer von Auschwitz,http://www.topfundsoehne.de,www.gedenkstaettenforum.de
"Erinnerungsstätte ""Männer von Brettheim""",http://www.lpb.bwue.de/gedenk/gedenkstaetten/de/Broschuere/Brettheim.htm,www.gedenkstaettenforum.de
Erinnerungsstätte Lager Weyer,http://members.surfeu.at/lager.weyer/,www.gedenkstaettenforum.de
Erinnerungsstätte Notaufnahmelager Marienfelde,http://www.notaufnahmelager-berlin.de,www.gedenkstaettenforum.de
Evangelische Versöhnungkirche in der KZ-Gedenkstätte Dachau,http://www.versoehnungskirche-dachau.de,www.gedenkstaettenforum.de
Florida Holocaust Museum,http://www.flholocaustmuseum.org,www.gedenkstaettenforum.de
"Fondation Auschwitz Stichting, Centre d´Etudes et de Documentation",http://www.auschwitz.be,www.gedenkstaettenforum.de
Fondation pour la Mémoire de la Déportation,http://fondationmemoiredeportation.com/memoire-de-la-deportation-et-de-l-internement/,www.gedenkstaettenforum.de
Fondation pour la Mémoire de la Shoah,http://www.fondationshoah.org,www.gedenkstaettenforum.de
Förderkreis zur Errichtung eines Denkmales für die ermordeten Juden Europas,http://www.holocaust-denkmal-berlin.de,www.gedenkstaettenforum.de
Förderverein der Gedenkstätte für die Opfer der NS-„Euthanasie“ Bernburg e.V.,http://www.gedenkstaette-bernburg.de,www.gedenkstaettenforum.de
Förderverein für ein Dokumentations- und Begegnungszentrum zur NS-Zwangsarbeit in Berlin-Schöneweide,http://www.zwangsarbeit-in-berlin.de/schoeneweide/index.htm,www.gedenkstaettenforum.de
Forschung zur Zwangsarbeit in Deutschland während des Dritten Reiches,http://www.zwangsarbeit-forschung.de,www.gedenkstaettenforum.de
Forschungsstelle Nachkriegsjustiz,http://www.nachkriegsjustiz.at/,www.gedenkstaettenforum.de
"Fortunoff Video Archive for Holocaust Testimonies, Yale University Library",http://www.library.yale.edu/testimonies,www.gedenkstaettenforum.de
Fritz Bauer Institut,http://www.fritz-bauer-institut.de/,www.gedenkstaettenforum.de
Fritz Bauer Institut. Studien- und Dokumentationszentrum zur Geschichte und Wirkung des Holocaust,http://www.fritz-bauer-institut.de,www.gedenkstaettenforum.de
Galicia Jewish Museum,http://www.de.galiciajewishmuseum.org/,www.gedenkstaettenforum.de
Gedenk- und Begegnungsstätte Leistikowstraße Potsdam,http://www.gedenkstaette-leistikowstrasse.de,www.gedenkstaettenforum.de
Gedenk- und Dokumentationsstätte KZ Drütte,http://www.gedenkstaette-salzgitter.de,www.gedenkstaettenforum.de
GEDENKDIENST - Verein zur Leistung eines Gedenkdienstes an Holocaust-Gedenkstätten,http://www.gedenkdienst.at,www.gedenkstaettenforum.de
"Gedenkkreis Wehnen e.V., Alte Pathologie Wehnen",http://www.gedenkkreis.de,www.gedenkstaettenforum.de
"Gedenkort T4, Tiergartenstraße 4, Berlin",http://www.gedenkort-t4.eu/,www.gedenkstaettenforum.de
Gedenkstaette Bautzen,http://www.stsg.de/cms/bautzen/startseite,www.gedenkstaettenforum.de
Gedenkstaetten Niedersachsen,http://www.gedenkstaetten-niedersachsen.de,www.gedenkstaettenforum.de
"Gedenkstätte ""Seelower Höhen""",http://www.gedenkstaette-seelower-hoehen.de/,www.gedenkstaettenforum.de
Gedenkstätte Augustaschacht,http://www.augustaschacht.de,www.gedenkstaettenforum.de
Gedenkstätte Bergen-Belsen,http://www.bergenbelsen.de,www.gedenkstaettenforum.de
Gedenkstätte Berliner Mauer,http://www.berliner-mauer-gedenkstaette.de,www.gedenkstaettenforum.de
Gedenkstätte Breitenau,http://www.gedenkstaette-breitenau.de,www.gedenkstaettenforum.de
Gedenkstätte Buchenwald,http://www.buchenwald.de,www.gedenkstaettenforum.de
Gedenkstätte der Justizvollzugsanstalt Wolfenbüttel,http://www.nlpb.de/05-gedenk/g6.htm,www.gedenkstaettenforum.de
Gedenkstätte Deutscher Widerstand,http://www.gdw-berlin.de,www.gedenkstaettenforum.de
Gedenkstätte Eckerwald,http://www.lpb.bwue.de/gedenk/gedenkstaetten/de/Broschuere/eckerwald.htm,www.gedenkstaettenforum.de
Gedenkstätte ehemalige Synagoge Michelbach a.d. Lücke,http://www.lpb.bwue.de/gedenk/gedenkstaetten/de/Broschuere/michelbach.htm,www.gedenkstaettenforum.de
Gedenkstätte Ehrenhain-Zeithain,http://www.stsg.de/cms/zeithain/startseite,www.gedenkstaettenforum.de
"Gedenkstätte für ""Euthanasie""-Opfer der Kinder-und Jugendpsychiatrie Marsberg/Nrw",http://www.idiotenfriedhof.de,www.gedenkstaettenforum.de
Gedenkstätte für Opfer der NS-„Euthanasie“ Bernburg,http://www.sachsen-anhalt.de/LPSA/index.php?id=31582,www.gedenkstaettenforum.de
Gedenkstätte Hadamar,http://www.gedenkstaette-hadamar.de,www.gedenkstaettenforum.de
Gedenkstätte Haus der Wannsee-Konferenz,http://www.ghwk.de,www.gedenkstaettenforum.de
Gedenkstätte Konzentrationslager Mauthausen,http://www.mauthausen-memorial.at,www.gedenkstaettenforum.de
Gedenkstätte Konzentrationslager und Strafanstalten Fuhlsbüttel 1933-1945,http://www.hamburg.de/Neuengamme/fuhlsbuettel.html,www.gedenkstaettenforum.de
Gedenkstätte KZ Außenlager Schlieben-Berga e.V.,http://www.schlieben-berga.de/,www.gedenkstaettenforum.de
Gedenkstätte KZ-Außenlager Braunschweig Schillstraße,http://www.schillstrasse.de,www.gedenkstaettenforum.de
Gedenkstätte Münchner Platz Dresden,http://www.stsg.de/cms/dresden/startseite,www.gedenkstaettenforum.de
Gedenkstätte Museum Stutthof,http://www.kki.net.pl/~museum/,www.gedenkstaettenforum.de
Gedenkstätte Pirna-Sonnenstein,http://www.stsg.de/cms/pirna/startseite,www.gedenkstaettenforum.de
Gedenkstätte Plötzensee,http://www.brandenburg.de/land/mwfk/kultur/deutsch/gedenkst/bln/dwd.ploetzenseed.html,www.gedenkstaettenforum.de
Gedenkstätte SA-Gefängnis Papestraße,http://www.gedenkstaette-papestrasse.de,www.gedenkstaettenforum.de
Gedenkstätte Todesmarsch im Belower Wald,http://www.stiftung-bg.de/below,www.gedenkstaettenforum.de
Gedenkstätte und Museum Sachsenhausen,http://www.stiftung-bg.de/gums/de,www.gedenkstaettenforum.de
Gedenkstätte Vulkan,http://www.gedenkstaette-vulkan.de,www.gedenkstaettenforum.de
Gedenkstätten für NS-Opfer in Deutschland,http://www.topographie.de/gedenkstaettenforum/uebersicht/,www.gedenkstaettenforum.de
Gedenkstätten in Baden-Württemberg,http://www.lpb.bwue.de/gedenk/gedenk1.htm,www.gedenkstaettenforum.de
Gedenkstätten Südlicher Oberrhein,http://www.gedenkstaetten-suedlicher-oberrhein.de/gedenkstaetten/,www.gedenkstaettenforum.de
Gedenktstätte und Dokumentationszentrum Grafeneck,http://www.gedenkstaette-grafeneck.de,www.gedenkstaettenforum.de
Gegen Vergessen - Für Demokratie e.V.,http://www.gegen-vergessen.de,www.gedenkstaettenforum.de
German Forced Labour Compensation Programme,http://www.compensation-for-forced-labour.org,www.gedenkstaettenforum.de
Geschichtsort Hotel Silber,http://www.geschichtsort-hotel-silber.de,www.gedenkstaettenforum.de
Geschichtswerkstatt Europa,http://www.geschichtswerkstatt-europa.org,www.gedenkstaettenforum.de
"Gesellschaft ""MEMORIAL""",http://www.memo.ru/deutsch/index.htm,www.gedenkstaettenforum.de
Gleis 69 e.V.,http://www.gleis69.de,www.gedenkstaettenforum.de
Holocaust Center of Northern California (HCNC),http://www.holocaust-sf.org,www.gedenkstaettenforum.de
Holocaust Education Center,http://www.urban.ne.jp/home/hecjpn/indexENGLISH.html,www.gedenkstaettenforum.de
Holocaust Memorial Center,http://www.holocaustcenter.org/index.html,www.gedenkstaettenforum.de
Holocaust Museum Houston,http://www.hmh.org/,www.gedenkstaettenforum.de
Holokausto Lietuvoje atlasas,http://www.holocaustatlas.lt/LT/,www.gedenkstaettenforum.de
House of responsibility (Braunau/Inn),http://www.hrb.at,www.gedenkstaettenforum.de
"HUSUM - ""Hier wird Leben ausgerottet"" / Deutsches Zwangsarbeits-KZ im 2. Weltkrieg -",http://www.ocs.mq.edu.au/~nwitton/index.htm,www.gedenkstaettenforum.de
Initiative Der homosexuellen NS-Opfer gedenken,http://www.gedenk-ort.de,www.gedenkstaettenforum.de
Initiative Mahnmal Homosexuellenverfolgung e.V.,http://www.frankfurter-engel.de,www.gedenkstaettenforum.de
INSMLI - Istituto nazionale per la storia del movimento di liberazione in Italia,http://www.insmli.it/,www.gedenkstaettenforum.de
Institut Terezinske iniciativy / Institut Theresienstadter Initiative,http://www.terezinstudies.cz/,www.gedenkstaettenforum.de
Internationale Jugendbegegnungsstätte  Auschwitz,http://www.mdsm.pl,www.gedenkstaettenforum.de
Internationale Jugendbegegnungsstätte in Oświęcim/Auschwitz,http://www.mdsm.pl/de/,www.gedenkstaettenforum.de
Internationales Auschwitz Komitee,http://www.auschwitz.info,www.gedenkstaettenforum.de
Internationales Sachsenhausen-Komitee,http://www.internationales-sachsenhausen-komitee.eu,www.gedenkstaettenforum.de
"ITS - Internationaler Suchdienst, Bad Arolsen",http://www.its-arolsen.org/english/index.html,www.gedenkstaettenforum.de
"ITS - Internationaler Suchdienst, Bad Arolsen",http://www.its-arolsen.org,www.gedenkstaettenforum.de
Jewish Holocaust Centre Inc,http://www.jhc.org.au,www.gedenkstaettenforum.de
Jewish Museum of Deportation and Resistance,http://www.cicb.be,www.gedenkstaettenforum.de
Jewish Partisan Educational Foundation,http://www.jewishpartisans.org,www.gedenkstaettenforum.de
Joods Historisch Museum / Jewish Historical Museum,http://www.jhm.nl/,www.gedenkstaettenforum.de
"Jüdisches Deportations und Widerstandsmuseum, Belgien",http://www.cicb.be,www.gedenkstaettenforum.de
Jüdisches Museum Berlin,http://www.jmberlin.de,www.gedenkstaettenforum.de
Jüdisches Museum Creglingen,http://www.juedisches-museum-creglingen.de,www.gedenkstaettenforum.de
Jüdisches Museum Göppingen,http://www.lpb.bwue.de/gedenk/gedenkstaetten/de/Broschuere/Jebenhausen.htm,www.gedenkstaettenforum.de
Jüdisches Museum Hohenems,http://www.jm-hohenems.at,www.gedenkstaettenforum.de
Jüdisches Museum Warschau,http://www.jewishmuseum.org.pl/index-gb.html,www.gedenkstaettenforum.de
Jüdisches Museum Westfalen in Dorsten,http://www.jmw-dorsten.de,www.gedenkstaettenforum.de
Juedisches Historisches Institut Warschau,http://www.jewishinstitute.org.pl,www.gedenkstaettenforum.de
Kamp Amersfoort,http://www.kampamersfoort.nl/,www.gedenkstaettenforum.de
Kriegsgefangenenlager Mühlberg/Elbe,http://www.brandenburg.de/land/mwfk/kultur/gedenk/kriegsgefangenenlager.html,www.gedenkstaettenforum.de
KZ - Gedenkstätte Neuengamme,http://fhh1.hamburg.de/Neuengamme/,www.gedenkstaettenforum.de
KZ Gedenkstätte Mittelbau DORA,http://www.dora.de/,www.gedenkstaettenforum.de
KZ-Gedenkstaette Ladelund,http://www.kz-gedenkstaette-ladelund.de,www.gedenkstaettenforum.de
KZ-Gedenkstätte Bisingen,http://www.lpb.bwue.de/gedenk/gedenkstaetten/ de/Broschuere/Bisingen.htm,www.gedenkstaettenforum.de
KZ-Gedenkstätte Dachau,http://www.kz-gedenkstaette-dachau.de,www.gedenkstaettenforum.de
KZ-Gedenkstätte Flossenbürg,http://www.gedenkstaette-flossenbuerg.de,www.gedenkstaettenforum.de
KZ-Gedenkstätte im Torhaus Moringen,http://www.gedenkstaette-moringen.de,www.gedenkstaettenforum.de
KZ-Gedenkstätte Mannheim-Sandhofen,http://www.kz-gedenkstaette-sandhofen.de/,www.gedenkstaettenforum.de
KZ-Gedenkstätte Neckarelz,http://www.kz-denk-neckarelz.de/,www.gedenkstaettenforum.de
KZ-Gedenkstätte und Widerstandsmuseum Ebensee,http://www.ebensee.org/,www.gedenkstaettenforum.de
KZ-Gedenkstätte Vaihingen/Enz,http://www.gedenkstaette-vaihingen.de/,www.gedenkstaettenforum.de
La Coupole. Centre d'histoire de la guerre et des fusées,http://www.lacoupole.com/,www.gedenkstaettenforum.de
La Risiera di San Sabba,http://www.windcloak.it/cultura/risiera/laris.htm,www.gedenkstaettenforum.de
Lagergemeinschaft Buchenwald-Dora Freundeskreis e.V,http://www.lagergemeinschaft-buchenwald.de,www.gedenkstaettenforum.de
Le Mémorial de Caen. Un musée pour la paix.,http://www.memorial.fr,www.gedenkstaettenforum.de
Le Patriote Résistant (publication mensuelle de la FNDIRP),http://www.fndirp.asso.fr/patriot.htm,www.gedenkstaettenforum.de
Learning from History,http://www.holocaust-education.de,www.gedenkstaettenforum.de
Lern- und Gedenkort Schloss Hartheim,http://www.schloss-hartheim.at,www.gedenkstaettenforum.de
Lietuvos politiniu kaliniu ir tremtiniu sajunga (LPKTS) / Union of lithuanian political prisoners and deportees,http://www.lpkts.lt,www.gedenkstaettenforum.de
London Jewish Cultural Centre (former Spiro Institute),http://www.ljcc.org.uk,www.gedenkstaettenforum.de
Los Angeles Museum of the Holocaust,http://www.jewishla.org/html/l.a._holocaust_museum.htm,www.gedenkstaettenforum.de
Mahn- und Gedenkstätte Düsseldorf,http://www.ns-gedenkstaetten.de/nrw/duesseldorf/index_2.php3,www.gedenkstaettenforum.de
Mahn- und Gedenkstätte Ravensbrück,http://www.ravensbrueck.de,www.gedenkstaettenforum.de
Mahn- und Gedenkstätte Wöbbelin,http://www.kz-woebbelin.de,www.gedenkstaettenforum.de
Mahn-und Gedenkstätte Ravensbrück,http://www.ravensbrueck.de,www.gedenkstaettenforum.de
"Maison d’Izieu, mémorial des enfants juifs exterminés",http://www.memorializieu.eu/spip.php?rubrique43&lang=de,www.gedenkstaettenforum.de
March of the Living International,http://www.motl.org,www.gedenkstaettenforum.de
Massuah Institute for the Study of the Holocaust,http://www.massuah.org,www.gedenkstaettenforum.de
Mauthausen Aktiv - Kärnten/Koroska,http://loibl-memorial.uni-klu.ac.at,www.gedenkstaettenforum.de
Maximilian-Kolbe-Werk e. V.,http://www.maximilian-kolbe-werk.de,www.gedenkstaettenforum.de
Memoria Abierta,http://www.memoriaabierta.org.ar/,www.gedenkstaettenforum.de
Memorial and Museum Auschwitz-Birkenau / Gedenkstätte und Museum Auschwitz-Birkenau,http://www.auschwitz.org.pl,www.gedenkstaettenforum.de
Mémorial de la Shoah - Helene Berr,http://www.memorialdelashoah.org/upload/minisites/helene_berr/index.html,www.gedenkstaettenforum.de
Memorium Nürnberger Prozesse,http://www.memorium-nuernberg.de/,www.gedenkstaettenforum.de
Moses Mendelssohn Zentrum,http://www.mmz-potsdam.de/1024/index.htm,www.gedenkstaettenforum.de
Musée de la Résistance Azuréenne,http://resistance.azur.free.fr,www.gedenkstaettenforum.de
Musée de la Résistance et de la Déportation - La Citatelle,http://www.besancon.com/musees/francais/resist.htm,www.gedenkstaettenforum.de
Musée de la Résistance et de la Déportation de Bourges et du Cher,http://www.musee-resistance.com/visGuid/musees/bourges.asp,www.gedenkstaettenforum.de
Musée de la Résistance et de la Déportation de Givors,http://www.musee-resistance.com/visGuid/musees/givors.asp,www.gedenkstaettenforum.de
Musée de la Résistance et de la Déportation de l'Isère,http://www.resistance-en-isere.com,www.gedenkstaettenforum.de
Musée de la Résistance Nationale de Champigny-sur-Marne,http://www.musee-resistance.com/visGuid/musees/champigny.asp,www.gedenkstaettenforum.de
Musée mémorial des enfants d'Izieu,http://www.izieu.alma.fr,www.gedenkstaettenforum.de
Musée Vauzélien de la Résistance Nationale,http://www.musee-resistance.com/visGuid/musees/varennes.asp,www.gedenkstaettenforum.de
Musée-mémorial des enfants d'Izieu,http://www.izieu.alma.fr,www.gedenkstaettenforum.de
"Museum ""Haus am Checkpoint Charlie""",http://www.mauer-museum.com/,www.gedenkstaettenforum.de
Museum Blindenwerkstatt Otto Weidt,http://www.museum-blindenwerkstatt.de,www.gedenkstaettenforum.de
Museum of Jewish Heritage,http://www.mjhnyc.org,www.gedenkstaettenforum.de
Museum of Romani culture,http://www.rommuz.cz,www.gedenkstaettenforum.de
Museum Tuvie Maizel in Mexiko-Stadt,http://www.museojudiomexico.com.mx/museojudiomexico/,www.gedenkstaettenforum.de
Nationaal Oorlogs- en Verzetsmuseum Overloon / Nationales Kriegs- und Widerstandsmuseum,http://www.oorlogsmuseum-overloon.nl,www.gedenkstaettenforum.de
National Monument Camp Vught,http://www.nmkampvught.nl,www.gedenkstaettenforum.de
Nederlands Instituut voor Oorlogsdocumentatie / Netherlands Institute for War Documentation,http://www.oorlogsdoc.knaw.nl/,www.gedenkstaettenforum.de
Norges Hjemmefrontmuseum (Norwegische Widerstandsmuseum),http://www.nhm.mil.no,www.gedenkstaettenforum.de
NS-Dokumentationsstelle der Stadt Krefeld / Villa Merländer,http://www.ns-gedenkstaetten.de/nrw/de/krefeld/thema_1/,www.gedenkstaettenforum.de
NS-Dokumentationszentrum Rheinland-Pfalz - Gedenkstätte KZ Osthofen,http://www.projektosthofen-gedenkstaette.de,www.gedenkstaettenforum.de
Okupatsioonimuuseum / Museum of Occupation,http://www.okupatsioon.ee/,www.gedenkstaettenforum.de
Österreichischer Auslandsdienst,http://www.auslandsdienst.at,www.gedenkstaettenforum.de
Österreichischer Gedenkdienst,http://www.gedenkdienst.de,www.gedenkstaettenforum.de
Pädagogisch-kulturelles Centrum ehemalige Synagoge Freudental e.V.,http://www.pkc-freudental.de/,www.gedenkstaettenforum.de
Památník Terezín,http://www.pamatnik-terezin.cz/,www.gedenkstaettenforum.de
RE.F.U.G.I.U.S. - Rechnitzer Flüchtlings- und Gedenkinitiative und Stiftung,http://www.kbk.at/refugius,www.gedenkstaettenforum.de
"Stiftung ""Erinnerung, Verantwortung und Zukunft""",http://www.stiftung-evz.de,www.gedenkstaettenforum.de
Stiftung Berliner Mauer,http://www.stiftung-berliner-mauer.de,www.gedenkstaettenforum.de
Stiftung Brandenburgische Gedenkstätten,http://www.stiftung-bg.de,www.gedenkstaettenforum.de
Stiftung Denkmal für die ermordeten Juden Europas,http://www.holocaust-mahnmal.de,www.gedenkstaettenforum.de
Stiftung Kreisau,http://www.krzyzowa.org.pl/de/index.html,www.gedenkstaettenforum.de
Stiftung Kreisau fuer europaeische Verstaendigung,http://www.krzyzowa.org.pl,www.gedenkstaettenforum.de
Stiftung Oktober 44,http://www.oktober44.nl,www.gedenkstaettenforum.de
Stiftung Sächsische Gedenkstätten,http://www.stsg.de,www.gedenkstaettenforum.de
Stiftung Topographie des Terrors,http://www.topographie.de,www.gedenkstaettenforum.de
Stiftung zur Aufarbeitung der SED-Diktatur,http://www.stiftung-aufarbeitung.de,www.gedenkstaettenforum.de
Sydney Jewish Holocaust Museum and Research Center,http://www.sydneyjewishmuseum.com.au,www.gedenkstaettenforum.de
"Task Force for International Cooperation on Holocaust Education, Remembrance and Research",http://www.holocausttaskforce.org,www.gedenkstaettenforum.de
The Galicia Jewish Museum,http://www.galiciajewishmuseum.org,www.gedenkstaettenforum.de
The Holocaust Centre Beth Shalom,http://www.bethshalom.com,www.gedenkstaettenforum.de
The Holocaust Memorial Resource and Education Center of central Florida,http://www.holocaustedu.org/,www.gedenkstaettenforum.de
The Jewish Museum of Riga,http://www.shtetlinks.jewishgen.org/riga/JewishMuseumofRiga.htm,www.gedenkstaettenforum.de
THE NATIONAL D-DAY MUSEUM,http://www.ddaymuseum.org/,www.gedenkstaettenforum.de
The Occupation Museum of Latvia (1940 - 1991),http://www.occupationmuseum.lv/,www.gedenkstaettenforum.de
The Stockholm International Forum on the Holocaust,http://www.holocaustforum.gov.se,www.gedenkstaettenforum.de
The Yad Vashem Charitable Trust,http://www.yadvashem.org.uk,www.gedenkstaettenforum.de
Union des Résistants et Déportés Juifs de France,http://www.cie.fr/urdf,www.gedenkstaettenforum.de
USC Shoah Foundation Institute for Visual History and Education,http://www.vhf.org,www.gedenkstaettenforum.de
"Verein ""ERINNERN"" Villach",http://www.net4you.net/erinnern,www.gedenkstaettenforum.de
"Verein ""Niemals Vergessen""",http://www.gedenkdienst.com,www.gedenkstaettenforum.de
Verein Schloss Hartheim,http://members.aon.at/schloss-hartheim,www.gedenkstaettenforum.de
Vereinigung der Verfolgten des Naziregimes - Bund der Antifaschistinnen und Antifaschisten,http://www.vvn-bda.de,www.gedenkstaettenforum.de
Verzetsmuseum.Amsterdam,http://www.verzetsmuseum.org/home.html,www.gedenkstaettenforum.de
Villa ten Hompel,http://www.muenster.de/stadt/villa-ten-hompel/index.html,www.gedenkstaettenforum.de
Virginia Holocaust Museum,http://www.va-holocaust.com/,www.gedenkstaettenforum.de
Wewelsburg 1933 – 1945 Erinnerungs- und Gedenkstätte,http://www.wewelsburg.de,www.gedenkstaettenforum.de
"Wiener Library, London",http://www.wienerlibrary.co.uk,www.gedenkstaettenforum.de
Wilhelm-Leuschner-Zentrum/Wilhelm-Leuschner-Gedenkstätte/Wilhelm-Leuschner-Stiftung,http://www.wilhelm-leuschner-stiftung.de/,www.gedenkstaettenforum.de
World Federation of Jewish Child Survivors of the Holocaust (WFJCSH),http://www.wfjcsh.org,www.gedenkstaettenforum.de
Yad Vashem,http://www1.yadvashem.org/education/index_education.html,www.gedenkstaettenforum.de