name, links_page, parent_link
International Youth Meeting House,http://www.mdsm.pl/,auschwitz.org
Center for Dialogue and Prayer,http://www.cdim.pl/en,auschwitz.org
Jewish Museum and Synagogue in Oświęcim,http://ajcf.org/,auschwitz.org
The Auschwitz Preservation Society,http://tono.org.pl/,auschwitz.org
Roma Historical Institute,http://www.stowarzyszenie.romowie.net/aktualnosci-2.html,auschwitz.org
Foundation Of Memory Sites Near Auschwitz-Birkenau,http://auschwitz-podobozy.org/en/,auschwitz.org
Gemeinde ,http://www.guxhagen.de/,www.gedenkstaette-breitenau.de
Gedenkstätte Hadamar,http://www.gedenkstaette-hadamar.de/,www.gedenkstaette-breitenau.de
Dokumentations- und Informationszentrum Stadtallendorf (DIZ),http://www.diz-stadtallendorf.de/,www.gedenkstaette-breitenau.de
Gedenkstätte und Museum Trutzhain,http://www.gedenkstaette-trutzhain.de/,www.gedenkstaette-breitenau.de
Muna,http://www.muna-grebenhain.de/,www.gedenkstaette-breitenau.de
Arbeitskreises der NS-Gedenkstätten in Nordrhein-,http://www.ns-gedenkstaetten.de/nrw,www.gedenkstaette-breitenau.de
Gedenkstätten in Baden-Württemberg,http://www.gedenkstaetten-bw.de/,www.gedenkstaette-breitenau.de
Stiftung Brandenburgische Gedenkstätten,http://www.gedenkstaette-sachsenhausen.de/,www.gedenkstaette-breitenau.de
Stiftung Gedenkstätten Buchenwald und Mittelbau-Dora,http://www.buchenwald.de/,www.gedenkstaette-breitenau.de
KZ-Gedenkstätte Dachau,http://www.kz-gedenkstaette-dachau.de/,www.gedenkstaette-breitenau.de
KZ-Gedenkstätte Neuengamme,http://www.kz-gedenkstaette-neuengamme.de/,www.gedenkstaette-breitenau.de
Mahn- und Gedenkstätte ,http://www.ravensbrueck.de/,www.gedenkstaette-breitenau.de
"Dokumentations- und Informationszentrum (DIZ) Emslandlager, Papenburg",http://www.diz-emslandlager.de/index.html,www.gedenkstaette-breitenau.de
Haus der Wannsee-Konferenz - Gedenk- und Bildungsstätte - ,http://www.ghwk.de/,www.gedenkstaette-breitenau.de
KZ-Gedenkstätte Flossenbürg,http://www.gedenkstaette-flossenbuerg.de/,www.gedenkstaette-breitenau.de
Gedenkstätten für NS-Opfer - Übersicht,http://www.gedenkstaetten-uebersicht.de/,www.gedenkstaette-breitenau.de
Yad,http://www.yadvashem.org/,www.gedenkstaette-breitenau.de
Gedenkstätte und Museum Auschwitz-Birkenau,http://www.auschwitz.org.pl/,www.gedenkstaette-breitenau.de
Centre,http://www.oradour.org/,www.gedenkstaette-breitenau.de
United States Holocaust Memorial Museum (USA),http://www.ushmm.org/,www.gedenkstaette-breitenau.de
Stiftung Topographie des Terrors,http://www.topographie.de/,www.gedenkstaette-breitenau.de
ITS - Internationaler Suchdienst Bad ,http://www.its-arolsen.org/,www.gedenkstaette-breitenau.de
Arbeitskreis zur Erforschung des Nationalsozialismus in Schleswig-Holstein e.V.,http://www.akens.org/,www.gedenkstaette-breitenau.de
Arbeitsgemeinschaft zur Erforschung der Dachauer Zeitgeschichte e.V.,http://www.zbdachau.de/,www.gedenkstaette-breitenau.de
Ausstellung: Widerstand!? Evangelische Christinnen und Christen im Nationalsozialismus,http://www.evangelischer-widerstand.de/,www.gedenkstaette-breitenau.de
Online Gedenkstättenforum,http://www.gedenkstaettenforum.de,www.gedenkstaette-breitenau.de
Förderverein für Internationale Jugendbegegnung und Gedenkstättenarbeit in Dachau e.V.,http://www.foerderverein-dachau.de/,www.kz-gedenkstaette-dachau.de
International Youth Meeting Dachau,http://www.jugendbegegnung-dachau.de/?lang=en,www.kz-gedenkstaette-dachau.de
International Youth Guest House Dachau - Max Mannheimer Study Center,http://mmsz-dachau.de/,www.kz-gedenkstaette-dachau.de
Protestant Church of Reconciliation at the Memorial Site,http://www.versoehnungskirche-dachau.de/,www.kz-gedenkstaette-dachau.de
Verein z.B. Dachau,http://www.zbdachau.de/,www.kz-gedenkstaette-dachau.de
Förderverein für Internationale Jugendbegegnung und Gedenkstättenarbeit in Dachau e.V.,http://www.foerderverein-dachau.de/,www.kz-gedenkstaette-dachau.de
International Youth Meeting Dachau,http://www.jugendbegegnung-dachau.de/?lang=en,www.kz-gedenkstaette-dachau.de
International Youth Guest House Dachau - Max Mannheimer Study Center,http://mmsz-dachau.de/,www.kz-gedenkstaette-dachau.de
Karmel Heilig Blut Dachau,https://dachau.karmelocd.de/,www.kz-gedenkstaette-dachau.de
Protestant Church of Reconciliation at the Memorial Site,http://www.versoehnungskirche-dachau.de/,www.kz-gedenkstaette-dachau.de
Verein z.B. Dachau,http://www.zbdachau.de/,www.kz-gedenkstaette-dachau.de
Bergen-Belsen Memorial,http://www.bergenbelsen.de/,www.kz-gedenkstaette-dachau.de
Buchenwald Memorial,http://www.buchenwald.de/media_de/index.html,www.kz-gedenkstaette-dachau.de
Flossenbürg Concentration Camp Memorial Site,http://www.gedenkstaette-flossenbuerg.de/,www.kz-gedenkstaette-dachau.de
Mittelbau-Dora Concentration Camp Memorial,http://www.dora.de/media_de/index.html,www.kz-gedenkstaette-dachau.de
Neuengamme Concentration Camp Memorial,https://www.kz-gedenkstaette-neuengamme.de/en/?no_cache=1,www.kz-gedenkstaette-dachau.de
Ravensbrück Memorial Museum,http://www.ravensbrueck.de/mgr/index.html,www.kz-gedenkstaette-dachau.de
Memorial and Museum Sachsenhausen,http://www.stiftung-bg.de/gums/de/index.htm,www.kz-gedenkstaette-dachau.de
KZ-Gedenkstaette Breitenau,http://www.gedenkstaette-breitenau.de/,www.kz-gedenkstaette-dachau.de
Lern- und Gedenkort Schloss Hartheim,http://www.schloss-hartheim.at/index.php/en/,www.kz-gedenkstaette-dachau.de
Mauthausen Memorial,http://www.mauthausen-memorial.at/,www.kz-gedenkstaette-dachau.de
Dokumentationszentrum Oberer Kuhberg e.V.,http://www.dzokulm.telebus.de/,www.kz-gedenkstaette-dachau.de
Gedenkstättenforum,http://www.gedenkstaettenforum.de/,www.kz-gedenkstaette-dachau.de
Stiftung Bayerische Gedenkstätten,http://www.stiftung-bayerische-gedenkstaetten.de/,www.kz-gedenkstaette-dachau.de
Comité International de Dachau (CID),https://www.comiteinternationaldachau.com/en/,www.kz-gedenkstaette-dachau.de
Lagergemeinschaft Dachau e.V.,http://www.lagergemeinschaft-dachau.de/,www.kz-gedenkstaette-dachau.de
Stiftung Weiße Rose,http://www.weisse-rose-stiftung.de/,www.kz-gedenkstaette-dachau.de
Georg Elser Arbeitskreis,http://www.georg-elser-arbeitskreis.de/,www.kz-gedenkstaette-dachau.de
Working group of Memorial centres in Northrhine-Westphalia,http://www.ns-gedenkstaetten.de/,www.kz-gedenkstaette-dachau.de
Arbeitskreis zur Erforschung des Nationalsozialismus in Schleswig-Holstein,http://www.akens.org/,www.kz-gedenkstaette-dachau.de
"Dokumentations- und Informationszentrum (DIZ) Emslandlager, Papenburg",http://www.diz-emslandlager.de/dizen01.htm,www.kz-gedenkstaette-dachau.de
Stiftung Sächsische Gedenkstätten,https://en.stsg.de/cms/node/867,www.kz-gedenkstaette-dachau.de
Landesarbeitsgemeinschaft der Gedenkstätten und Gedenkstätteninitiativen in Baden-Württemberg,http://www.gedenkstaetten-bw.de/,www.kz-gedenkstaette-dachau.de
Memorial to the Murdered Jews of Europe,http://www.stiftung-denkmal.de/,www.kz-gedenkstaette-dachau.de
Topography of Terror Foundation,http://www.topographie.de/,www.kz-gedenkstaette-dachau.de
Documentation Centre of Austrian Resistance (DÖW),http://www.doew.at/,www.kz-gedenkstaette-dachau.de
International Tracing Service (ITS) in Bad Arolsen,http://www.its-arolsen.org/en/homepage/index.html,www.kz-gedenkstaette-dachau.de
National Museum in Oswiecim (Auschwitz),http://www.auschwitz.org.pl/,www.kz-gedenkstaette-dachau.de
Yad Vashem,http://www.yadvashem.org/,www.kz-gedenkstaette-dachau.de
United States Holocaust Memorial Museum,http://www.ushmm.org/,www.kz-gedenkstaette-dachau.de
http://www.sztetl.org.pl/,http://www.sztetl.org.pl/,www.memorialdelashoah.org
http://www.stiftung-denkmal.de,http://www.stiftung-denkmal.de,www.memorialdelashoah.org
http://www.topographie.de/,http://www.topographie.de/,www.memorialdelashoah.org
http://www.annefrank.nl,http://www.annefrank.nl,www.memorialdelashoah.org
http://www.dhm.de/,http://www.dhm.de/,www.memorialdelashoah.org
http://www.gfh.org.il/,http://www.gfh.org.il/,www.memorialdelashoah.org
http://www.jmw.at,http://www.jmw.at,www.memorialdelashoah.org
http://www.cicb.be/,http://www.cicb.be/,www.memorialdelashoah.org
http://www.memorial-caen.fr/fr/index.php,http://www.memorial-caen.fr/fr/index.php,www.memorialdelashoah.org
http://www.resistance-en-isere.com/,http://www.resistance-en-isere.com/,www.memorialdelashoah.org
http://www.verzetsmuseum.org,http://www.verzetsmuseum.org,www.memorialdelashoah.org
http://www.bethshalom.com,http://www.bethshalom.com,www.memorialdelashoah.org
http://www.ushmm.org,http://www.ushmm.org,www.memorialdelashoah.org
http://www.yadvashem.org/,http://www.yadvashem.org/,www.memorialdelashoah.org
http://www.hollandscheschouwburg.nl,http://www.hollandscheschouwburg.nl,www.memorialdelashoah.org
http://www.jewishmuseum.cz/aindex.htm,http://www.jewishmuseum.cz/aindex.htm,www.memorialdelashoah.org
http://www.juedisches-museum-berlin.de/site/DE/homepage.php,http://www.juedisches-museum-berlin.de/site/DE/homepage.php,www.memorialdelashoah.org
http://www.jmw.at/,http://www.jmw.at/,www.memorialdelashoah.org
http://www.jhm.nl/,http://www.jhm.nl/,www.memorialdelashoah.org
http://www.jewishmuseum.org.uk/,http://www.jewishmuseum.org.uk/,www.memorialdelashoah.org
http://www.ljcc.org.uk/,http://www.ljcc.org.uk/,www.memorialdelashoah.org
http://www.afz.ethz.ch/,http://www.afz.ethz.ch/,www.memorialdelashoah.org
http://www.doew.at/,http://www.doew.at/,www.memorialdelashoah.org
http://www.dhm.de/,http://www.dhm.de/,www.memorialdelashoah.org
http://www.auschwitz.be/,http://www.auschwitz.be/,www.memorialdelashoah.org
http://www.library.yale.edu/testimonies/,http://www.library.yale.edu/testimonies/,www.memorialdelashoah.org
http://www.holocaust-trc.org/,http://www.holocaust-trc.org/,www.memorialdelashoah.org
http://www.lbi.com/,http://www.lbi.com/,www.memorialdelashoah.org
http://www.topographie.de/,http://www.topographie.de/,www.memorialdelashoah.org
http://www.rachelnet.net/rachelnet/index.htm,http://www.rachelnet.net/rachelnet/index.htm,www.memorialdelashoah.org
http://www.uni-heidelberg.de/institute/sonst/aj/,http://www.uni-heidelberg.de/institute/sonst/aj/,www.memorialdelashoah.org
http://www.adl.org,http://www.adl.org,www.memorialdelashoah.org
http://www.amcha.org/indexEn.htm,http://www.amcha.org/indexEn.htm,www.memorialdelashoah.org
http://www.asf-ev.de/,http://www.asf-ev.de/,www.memorialdelashoah.org
http://www.deportati.it,http://www.deportati.it,www.memorialdelashoah.org
http://www.remember.org/,http://www.remember.org/,www.memorialdelashoah.org
http://diaspora.org.il/The_Chamber,http://diaspora.org.il/The_Chamber,www.memorialdelashoah.org
http://www.fndirp.asso.fr,http://www.fndirp.asso.fr,www.memorialdelashoah.org
http://www.auschwitz.be/,http://www.auschwitz.be/,www.memorialdelashoah.org
http://www.fmd.asso.fr,http://www.fmd.asso.fr,www.memorialdelashoah.org
http://www.fondationshoah.org/,http://www.fondationshoah.org/,www.memorialdelashoah.org
http://www.gedenkdienst.at/,http://www.gedenkdienst.at/,www.memorialdelashoah.org
http://www.holocaust-trc.org/,http://www.holocaust-trc.org/,www.memorialdelashoah.org
http://www.claims.state.ny.us/,http://www.claims.state.ny.us/,www.memorialdelashoah.org
http://www.exilordinaire.org,http://www.exilordinaire.org,www.memorialdelashoah.org
http://www.dorot.fr,http://www.dorot.fr,www.memorialdelashoah.org
http://www.memoire2000.asso.fr/,http://www.memoire2000.asso.fr/,www.memorialdelashoah.org
http://www.wiesenthal.com/,http://www.wiesenthal.com/,www.memorialdelashoah.org
http://www.territoires-memoire.be/,http://www.territoires-memoire.be/,www.memorialdelashoah.org
http://www.genami.org,http://www.genami.org,www.memorialdelashoah.org
http://www.convoinumero7.org,http://www.convoinumero7.org,www.memorialdelashoah.org
http://www.holocausttaskforce.org/,http://www.holocausttaskforce.org/,www.memorialdelashoah.org
http://www.buchenwald-dora.fr/,http://www.buchenwald-dora.fr/,www.memorialdelashoah.org
http://www.deportesdelyon.fr/,http://www.deportesdelyon.fr/,www.memorialdelashoah.org
http://www.remember.org/jacobs/,http://www.remember.org/jacobs/,www.memorialdelashoah.org
http://www.nizkor.org/faqs/auschwitz/,http://www.nizkor.org/faqs/auschwitz/,www.memorialdelashoah.org
http://www.buchenwald.de/,http://www.buchenwald.de/,www.memorialdelashoah.org
http://www.mauthausen-memorial.gv.at/,http://www.mauthausen-memorial.gv.at/,www.memorialdelashoah.org
http://www.ravensbrueck.de,http://www.ravensbrueck.de,www.memorialdelashoah.org
http://www.cc-pays-averdun.fr/saverdun/pages/vernet/accueil.htm,http://www.cc-pays-averdun.fr/saverdun/pages/vernet/accueil.htm,www.memorialdelashoah.org
http://www.campdesmilles.org,http://www.campdesmilles.org,www.memorialdelashoah.org
http://www.struthof.fr,http://www.struthof.fr,www.memorialdelashoah.org
http://www.bergenbelsen.de/fr/,http://www.bergenbelsen.de/fr/,www.memorialdelashoah.org
http://www.adl.org,http://www.adl.org,www.memorialdelashoah.org
http://www.afz.ethz.ch/,http://www.afz.ethz.ch/,www.memorialdelashoah.org
http://www.alliancefr.com/,http://www.alliancefr.com/,www.memorialdelashoah.org
http://www.adl.org/braun/front-dimensions.html,http://www.adl.org/braun/front-dimensions.html,www.memorialdelashoah.org
http://bip.gross-rosen.eu/,http://bip.gross-rosen.eu/,en.gross-rosen.eu/
http://www.umwd.dolnyslask.pl/,http://www.umwd.dolnyslask.pl/,en.gross-rosen.eu/
Bewusstseinsregion Mauthausen – Gusen – St. Georgen,http://www.bewusstseinsregion.at/,www.mauthausen-memorial.org/en
Comité International de Mauthausen (CIM),http://www.cim-info.org/,www.mauthausen-memorial.org/en
Documentation Centre of Austrian Resistance (DÖW),http://www.doew.at/,www.mauthausen-memorial.org/en
Erinnern.at – National Socialism and Holocaust: Remembrance and Future,http://www.erinnern.at/,www.mauthausen-memorial.org/en
EUROM - European Observatory on Memories,http://europeanmemories.net/,www.mauthausen-memorial.org/en
Future Fund of the Republic of Austria,http://www.zukunftsfonds-austria.at/,www.mauthausen-memorial.org/en
Gusen Memorial Committee,http://www.gusen.org/en,www.mauthausen-memorial.org/en
Hartheim Castle,http://www.schloss-hartheim.at/,www.mauthausen-memorial.org/en
Institute of Contemporary History (University of Vienna),http://www.univie.ac.at/zeitgeschichte/,www.mauthausen-memorial.org/en
Mauthausen Committee Austria (MKÖ),http://www.mkoe.at/,www.mauthausen-memorial.org/en
Memorial Ebensee,http://www.memorial-ebensee.at/,www.mauthausen-memorial.org/en
National Fund of the Republic of Austria for Victims of National Socialism,https://nationalfonds.org/,www.mauthausen-memorial.org/en
Bergen-Belsen,http://www.bergen-belsen.de/en/,www.struthof.fr
Buchenwald,http://www.buchenwald.de/,www.struthof.fr
Dachau,http://www.kz-gedenkstaette-dachau.de/,www.struthof.fr
Flossenbürg,http://www.gedenkstaette-flossenbuerg.de/,www.struthof.fr
Mittelbau-Dora,http://www.dora.de/,www.struthof.fr
Neuengamme,http://www.hamburg.de/Neuengamme/,www.struthof.fr
Ravensbrück,http://www.ravensbrueck.de/mgr/index.html,www.struthof.fr
Sachsenhausen,http://www.stiftung-bg.de/gums/,www.struthof.fr
Osthofen,http://www.projektosthofen-gedenkstaette.de/,www.struthof.fr
Mauthausen,http://www.mauthausen-memorial.gv.at,www.struthof.fr
Mémorial de Ebensee (camp annexe de Mauthausen),http://www.memorial-ebensee.at/,www.struthof.fr
Auschwitz,http://www.auschwitz-muzeum.oswiecim.pl,www.struthof.fr
Gross Rosen,http://www.gross-rosen.pl/,www.struthof.fr
Majdanek,http://www.majdanek.pl/,www.struthof.fr
Stutthof,http://www.stutthof.pl/,www.struthof.fr
Orte der Erinnerung,www.orte-der-erinnerung.de,http://www.stiftung-bg.de
Internationales Sachsenhausen Komitee,www.internationales-sachsenhausen-komitee.eu,http://www.stiftung-bg.de
Gedenkstättenforum der Stiftung Topographie des Terrors,www.gedenkstaettenforum.de,http://www.stiftung-bg.de
Homosexuelle im KZ Sachsenhausen,www.rosa-winkel.de,http://www.stiftung-bg.de
Task Force for International Cooperation on Holocaust Education Remembrance and Research,www.holocausttaskforce.org ,http://www.stiftung-bg.de
Arbeitskreis NS-Gedenkstätten in NRW e.V.,www.ns-gedenkstaetten.de,http://www.stiftung-bg.de
"Denkzeichen - Ein Kunstprojekt der ""Euthanasie""-Gedenkstätte",www.denkzeichen.de,http://www.stiftung-bg.de
Dokumentationszentrum Reichparteitagsgelände Nürnberg,www.museen.nuernberg.de,http://www.stiftung-bg.de
Gedenken in BeNeLux,www.gedenken-in-benelux.de,http://www.stiftung-bg.de
Shoa.de - Ein Projekt zu Shoah Holocaust Antisemitismus Drittes Reich und Zweiter Weltkrieg,www.Shoa.de,http://www.stiftung-bg.de
Jüdisches Zentrum Auschwitz,www.ajcf.pl,http://www.stiftung-bg.de
Stiftung Sächsische Gedenkstätten,www.stsg.de,http://www.stiftung-bg.de
Lagergemeinschaft Ravensbrück Freundeskreis e. V.,www.lg-ravensbrueck.de,http://www.stiftung-bg.de
Museum – Memorial Site in Bełżec,http://www.belzec.eu/pl,http://www.sobibor-memorial.eu/en
State Museum at Majdanek,http://www.majdanek.eu/pl,http://www.sobibor-memorial.eu/en
Muzeum Piaśnickie w Wejherowie,http://muzeumpiasnickie.pl/,http://stutthof.org
European Shoah Legacy Institute (ESLI),http://shoahlegacy.org/,www.pamatnik-terezin.cz
Institute of Terezín Initiative,http://www.terezinstudies.cz/,www.pamatnik-terezin.cz
International Holocaust Remembrance Alliance,https://www.holocaustremembrance.com/,www.pamatnik-terezin.cz
Jewish Community of Prague,http://www.kehilaprag.cz/mambo/index.php?option=com_content&task=blogcategory&id=100&Itemid=81,www.pamatnik-terezin.cz
Jewish Museum in Prague,http://www.jewishmuseum.cz/,www.pamatnik-terezin.cz
Memory of Nations,http://www.pametnaroda.cz/?locale=en_GB,www.pamatnik-terezin.cz
Museum of Slovak National Uprising in Banská Bystrica,http://www.muzeumsnp.sk/,www.pamatnik-terezin.cz
Project Holocaust,http://www.holocaust.cz/en/main-2/,www.pamatnik-terezin.cz
Synagogue in Turnov,http://www.synagoga-turnov.cz/en/,www.pamatnik-terezin.cz
The Institute for the Study of Totalitarian Regimes,http://old.ustrcr.cz/en,www.pamatnik-terezin.cz
The Lidice Memorial,http://www.lidice-memorial.cz/default_en.aspx,www.pamatnik-terezin.cz
The Living Memory,http://www.zivapamet.cz/index.php?id=630,www.pamatnik-terezin.cz
The Auschwitz-Birkenau Memorial and State Museum,http://auschwitz.org/en/,www.pamatnik-terezin.cz
Muzeum i Miejsce Pamięci w Bełżcu,http://www.belzec.eu/pl,http://www.treblinka-muzeum.eu
Gross Rosen,https://www.gross-rosen.eu/,http://www.treblinka-muzeum.eu
State Museum at Majdanek,http://www.majdanek.eu/pl,http://www.treblinka-muzeum.eu
auschwitz,http://www.auschwitz.org/,http://www.treblinka-muzeum.eu
Sobibor Memorial,http://www.sobibor-memorial.eu/pl,http://www.treblinka-muzeum.eu
Muzeum Stutthof w Sztutowie,http://stutthof.org/,http://www.treblinka-muzeum.eu
Straty,http://www.straty.pl/index.php/en/,http://www.treblinka-muzeum.eu
Polscy Sprawiedliwi,http://www.sprawiedliwi.org.pl/,http://www.treblinka-muzeum.eu
Polskie Stowarzyszenie im. Janusza Korczaka,http://www.pskorczak.org.pl/,http://www.treblinka-muzeum.eu
Pamięć Treblinki,http://pamiectreblinki.pl/,http://www.treblinka-muzeum.eu
Airbornemuseum Oosterbeek,http://www.airbornemuseum.nl/index.html,www.kampwesterbork.nl
Anne Frank Huis Amsterdam,http://www.annefrank.org/nl/index.html,www.kampwesterbork.nl
Hollandsche Schouwburg Amsterdam,http://www.hollandscheschouwburg.nl/index.html,www.kampwesterbork.nl
Joods Historisch Museum Amsterdam,http://www.jhm.nl/index.html,www.kampwesterbork.nl
Liberty Park Oorlogsmuseum Overloon,http://www.oorlogsmuseum-overloon.nl/en/index.html,www.kampwesterbork.nl
Markt 12 Onderduiken Verzet Vrijheid Aalten,http://www.markt12.nl/index.html,www.kampwesterbork.nl
Museon’s Gravenhage,http://www.museon.nl/nl/index.html,www.kampwesterbork.nl
Museum Bronbeek Arnhem,http://www.defensie.nl/cdc/bronbeek/museum,www.kampwesterbork.nl
Nationaal Bevrijdingsmuseum Groesbeek,http://www.bevrijdingsmuseum.nl/index.html,www.kampwesterbork.nl
Nationaal Monument Kamp Amersfoort,http://www.kampamersfoort.nl/p/start,www.kampwesterbork.nl
Nationaal Monument Kamp Vught,http://www.nmkampvught.nl/index.html,www.kampwesterbork.nl
Museum Rotterdam '40 '45 Nu,http://www.40-45nu.nl/,www.kampwesterbork.nl
Verzetsmuseum Amsterdam,https://www.verzetsmuseum.org/museum/nl/museum,www.kampwesterbork.nl
Verzetsmuseum Friesland Leeuwarden,http://www.friesverzetsmuseum.nl/,www.kampwesterbork.nl
"Etty Hillesum Centrum, Deventer",http://www.ettyhillesumcentrum.nl/nl/,www.kampwesterbork.nl
Etty Hillesum Onderzoekscentrum Middelburg,http://www.ehoc.nl,www.kampwesterbork.nl
Bevrijdingsmuseum Zeeland,https://www.bmzeeland.nl/index.php/nl/,www.kampwesterbork.nl
Centrum voor Holocaust en Genocide Studies,http://www.chgs.nl,www.kampwesterbork.nl
Geheugen van Nederland,http://www.geheugenvannederland.nl/,www.kampwesterbork.nl
Nederlands Instituut voor Oorlogs- Holocaust- en Genocidestudies,http://www.niod.nl,www.kampwesterbork.nl
Stichting Musea en Herinneringscentra 40-45,http://smh-40-45.nl/,www.kampwesterbork.nl
Comité Herdenking Februaristaking 1941,http://februaristaking.nl/,www.kampwesterbork.nl
Comité Vrouwenconcentratiekamp Ravensbrück,http://www.ravensbruck.nl,www.kampwesterbork.nl
Nationaal Auschwitz Comité,http://www.auschwitz.nl,www.kampwesterbork.nl
Sinaicentrum,https://www.sinaicentrum.nl/,www.kampwesterbork.nl
Stichting 1940-1945,http://www.st4045.nl,www.kampwesterbork.nl
Stichting Centrum '45,http://www.centrum45.nl,www.kampwesterbork.nl
Stichting Herdenking 15 augustus 1945,http://www.indieherdenking.nl/nl/,www.kampwesterbork.nl
Stichting Oranjehotel,http://www.oranjehotel.org,www.kampwesterbork.nl
Stichting Sobibor,http://www.sobibor.org/,www.kampwesterbork.nl
Stichting Vriendenkring Mauthausen,http://www.mauthausen.nl,www.kampwesterbork.nl
Stichting Vriendenkring Neuengamme,http://www.vriendenkringneuengamme.nl,www.kampwesterbork.nl
Stichting Vriendenkring van oud-Dachauers,http://www.dachau.nl/,www.kampwesterbork.nl
Stichting Werkgroep Herkenning,http://www.kampwesterbork.nl/http://index.html,www.kampwesterbork.nl
Synagogen Noord en Oost Nederland,http://www.synagogen-noord-oost.nl,www.kampwesterbork.nl
Vereniging Bevrijdingskinderen,http://www.kampwesterbork.nl/http://index.html,www.kampwesterbork.nl
Vereniging Joodse OorlogsKinderen (JOK,http://www.j-o-k.nl,www.kampwesterbork.nl
Vereniging Kinderen van Verzetsdeelnemers 1940-1945,http://www.verzetskinderen.nl,www.kampwesterbork.nl
Gedenkorte Europa,http://www.gedenkorte-europa.eu/,www.kampwesterbork.nl
Gedenkstätten u. Museen zu 1939-1945 in Europa,http://memorialmuseums.net/,www.kampwesterbork.nl
Wege der Erinnerung in Europa,http://www.lescheminsdelamemoire.net/,www.kampwesterbork.nl
NS-Gedenkstätten in Deutschland,http://www.ns-gedenkstaetten.de/gedenkstaetten-bundesweit.html,www.kampwesterbork.nl
Stiftung Topographie des Terrors Berlin,http://www.topographie.de/,www.kampwesterbork.nl
der Stiftung Topographie des Terrors Berlin,http://www.gedenkstaettenforum.de/,www.kampwesterbork.nl
European Resistance Archive,http://www.resistance-archive.org/,www.kampwesterbork.nl
Wegweiser zu Gedenkstätten in den Niederlanden Belgien und Luxemburg,http://www.gedenken-in-benelux.de/,www.kampwesterbork.nl
Tweedewereldoorlog,http://www.tweedewereldoorlog.nl/,www.kampwesterbork.nl
Anne Frank Zentrum,https://www.annefrank.de/,www.annefrank.org
Anne Frank Trust,https://annefrank.org.uk/,www.annefrank.org
Centro Ana Frank,http://centroanafrank.com.ar/,www.annefrank.org
Anne Frank Center for Mutual Respect,https://www.annefrank.com/,www.annefrank.org
Jüdisches Museum der Stadt Frankfurt am Main,http://www.juedischesmuseum.de/,www.fritz-bauer-institut.de
Leo Baeck Institute London,http://www.leobaeck.co.uk/,www.fritz-bauer-institut.de
Simon-Dubnow-Institut für jüdische Geschichte und Kultur an der Universität Leipzig,http://www.dubnow.de/,www.fritz-bauer-institut.de
"Bildungsstätte Anne Frank, Frankfurt am Main",http://www.jbs-anne-frank.de/,www.fritz-bauer-institut.de
"Gedenkstättenreferat der Stiftung Topographie des Terrors, Berlin",http://www.topographie.de/,www.fritz-bauer-institut.de
Zentrum für Antisemitismusforschung TU Berlin,http://zfa.kgw.tu-berlin.de/,www.fritz-bauer-institut.de
"The American Jewish Committee, Berlin",http://www.ajcgermany.org/,www.fritz-bauer-institut.de
Anne Frank Zentrum Berlin,http://www.annefrank.de/,www.fritz-bauer-institut.de
KZ- und Euthanasie-Gedenkstätten in der BRD,http://www.gedenkstaettenforum.de/,www.fritz-bauer-institut.de
"Conference on Jewish Material Claims Against Germany, New York",http://www.claimscon.org/,www.fritz-bauer-institut.de
"Conference on Jewish Material Claims Against Germany, Frankfurt am Main",http://www.claimscon.de/,www.fritz-bauer-institut.de
"United States Holocaust Memorial Museum, Washington D.C.",http://www.ushmm.org/,www.fritz-bauer-institut.de
"The Wiener Library, London",http://www.wienerlibrary.co.uk/,www.fritz-bauer-institut.de
"Państwowe Muzeum Auschwitz-Birkenau, Oświęcim",http://www.auschwitz.org.pl/,www.fritz-bauer-institut.de
"Yad Vashem, Jerusalem",http://www.yadvashem.org/,www.fritz-bauer-institut.de
"Beit Lohamei Haghetaot/The Ghetto Fighters’ House, Israel",http://www.gfh.org.il/,www.fritz-bauer-institut.de
--- end of first batch --
Yad Vashem,http://www.yadvashem.org/,hdke.hu
Memorial and Museum Auschwitz-Birkenau,http://auschwitz.org/en/,hdke.hu
United States Holocause Memorial Museum,https://www.ushmm.org/,hdke.hu
International Holocaust Remembrance Alliance,http://www.holocaustremembrance.com/,hdke.hu
USC Shoah Foundation,https://sfi.usc.edu/,hdke.hu
The Institute for the Study of Totalitarian Regimes,http://old.ustrcr.cz/en/the-institute,old.ustrcr.cz
Security Services Archive,http://www.abscr.cz/en/,old.ustrcr.cz
Czechoslovak Documentation Centre,http://www.csds.cz/,old.ustrcr.cz
Czech Christian Academy,http://www.krestanskaakademie.cz/,old.ustrcr.cz
European Shoah Legacy Institute,http://www.shoahlegacy.org/,old.ustrcr.cz
The Czech - German Future Fund,http://www.cron.cz/,old.ustrcr.cz
Libri prohibiti,http://libpro.cts.cuni.cz/EN/index_en.html,old.ustrcr.cz
Museum of Romani Culture,http://www.rommuz.cz/index.php?option=com_content&task=view&id=147&Itemid=51,old.ustrcr.cz
Terezín Memorial,http://www.pamatnik-terezin.cz/en?lang=en,old.ustrcr.cz
The Vojna Memorial,http://www.muzeum-pribram.cz/jazyky/anglicky/vojnamemorial/vojnamemorial.html,old.ustrcr.cz
The Office for the Documentation and the Investigation of the Crimes of Communism Police of the Czech Republic,http://www.mvcr.cz/policie/udv/english/index.html,old.ustrcr.cz
Jewish Museum in Prague,http://www.jewishmuseum.cz/aindex.htm,old.ustrcr.cz
Platform of European Memory and Conscience,http://www.memoryandconscience.eu/,old.ustrcr.cz
Archiv Hoover Institution,http://www.hoover.org/hila/,old.ustrcr.cz
Davis Center for Russian and Eurasian Studies at Harvard University,http://daviscenter.fas.harvard.edu/,old.ustrcr.cz
Estonian Museum of the Occupations,http://www.okupatsioon.ee/english/,old.ustrcr.cz
Estonian War Museum,http://www.esm.ee/?lang=en,old.ustrcr.cz
Estonian Institute of Historical Memory,http://www.mnemosyne.ee/lang/en-us,old.ustrcr.cz
Genocide and Resistance Research Centre of Lithuania,http://www.genocid.lt/centras/en/,old.ustrcr.cz
House of Terror,http://www.terrorhaza.hu/en/index_2.html,old.ustrcr.cz
Historical Archives of the Hungarian State Security,http://www.abtl.hu/,old.ustrcr.cz
Maďarský ústav 20. století,http://www.xxszazadintezet.hu/,old.ustrcr.cz
Memorial,http://www.memo.ru/,old.ustrcr.cz
Memorial to the Murdered Jews of Europe,http://www.stiftung-denkmal.de/en,old.ustrcr.cz
Cold War International History Project,http://cwihp.si.edu/,old.ustrcr.cz
The International Commission for the Evaluation of the Crimes of the Nazi and Soviet Occupation Regimes in Lithuania,http://www.komisija.lt/,old.ustrcr.cz
United States Holocaust Memorial Museum,http://www.ushmm.org/,old.ustrcr.cz
The Museum of the Occupation of Latvia,http://www.occupationmuseum.lv/,old.ustrcr.cz
Auschwitz-Birkenau Museum,http://en.auschwitz.org/m/,old.ustrcr.cz
The Cold War Museum,http://www.coldwar.org/,old.ustrcr.cz
Warsaw Rising Museum,http://www.1944.pl/,old.ustrcr.cz
The Doomed Soldiers ⁄ Polish Underground Soldiers 1944–1963 –  The Untold Story,http://www.doomedsoldiers.com/torture-methods-of-ub.html,old.ustrcr.cz
The National Security Archive,http://www.gwu.edu/~nsarchiv/,old.ustrcr.cz
The Institute for the Investigation of Communist Crimes in Romania,http://www.crimelecomunismului.ro/en/,old.ustrcr.cz
The National Council for the Study of the Securitate Archives,http://www.cnsas.ro/,old.ustrcr.cz
The Global Museum on Communism,http://victimsofcommunism.org/,old.ustrcr.cz
The Memorial of the Victims of Communism and of the Resistance,http://www.memorialsighet.ro/,old.ustrcr.cz
Russia - Archives,http://www.rusarchives.ru/federal/list.shtml,old.ustrcr.cz
Cold War Studies Centre,http://www.lse.ac.uk/collections/CWSC/,old.ustrcr.cz
The KARTA Center,http://www.karta.org.pl/,old.ustrcr.cz
The Open Society Archives,http://www.ceu.hu/unit/open-society-archives,old.ustrcr.cz
Federal Commissioner for the Records of the National Security Services of the former DDR,http://www.bstu.bund.de/,old.ustrcr.cz
The comittee for disclosing and announcing affiliation of bulgarian citisens to the State Security and the intelligence services of the Bulgarian national Army,http://www.comdos.bg/,old.ustrcr.cz
The Institute of National Remembrance,http://www.ipn.gov.pl/,old.ustrcr.cz
The Institute of National Memory,http://www.upn.gov.sk/,old.ustrcr.cz
The Institute for the History of the 1956 Hungarian Revolution,http://www.rev.hu/,old.ustrcr.cz
The Holocaust Education Resource Center,http://www.wsherc.org/,old.ustrcr.cz
Yad Vashem - The Holocaust Martyrs' and Heroes' Remembrance Authority,http://www.yadvashem.org/,old.ustrcr.cz
KGB DOCUMENTS ON-LINE,http://www.kgbdocuments.eu/,old.ustrcr.cz
"KGB veikla Lietuvoje, visa informacija ir dokumentai",http://www.kgbveikla.lt/,old.ustrcr.cz
Short long journey,http://www.kratkadlouhacesta.cz/main.php?lang=en,old.ustrcr.cz
Digital Library of Staliniana,http://images.library.pitt.edu/s/stalinka,old.ustrcr.cz
Odboj Jičínsko,http://odboj.jicinsko.cz/,old.ustrcr.cz
Post Bellum,http://www.postbellum.cz/,old.ustrcr.cz
Pražský web pro studenou válku,http://www.praguecoldwar.cz/,old.ustrcr.cz
Strona o Żubrach zgrupowaniu w II Obwodzie AK,zubry1944.pl,www.muzeum-ak.pl
Grupa Rekonstrukcji Historycznej AK,grh-ak-murawa.almalo.edu.pl,www.muzeum-ak.pl
Światowy Związek Żołnierzy Armii Krajowej Zarząd Okręgu Podkarpackiego,www.akrzeszow.pl,www.muzeum-ak.pl
Truth About Camps,en.truthaboutcamps.eu,www.muzeum-ak.pl
Instytut Pamięci Narodowej,ipn.gov.pl,www.muzeum-ak.pl
Fondation pour la Mémoire de la Déportation  - Livre-mémorial,www.bddm.org/liv/index_liv.php,www.ghwk.de
Groß-Rosen: Database of the dead,http://en.gross-rosen.eu/baza-zmarlych-wiezniow/,www.ghwk.de
The Memorial Book of the Federal Archives for the Victims of the Persecution of Jews in Germany (1933-1945),http://www.bundesarchiv.de/gedenkbuch/index.html.en,www.ghwk.de
Mémorial de la Shoah - Rechercher une personne,http://www.memorialdelashoah.org/index.php/en/archives-and-documentation/search-for-a-person/search-for-a-person-victim-or-resistant,www.ghwk.de
Book of the Dead Sachsenhausen 1936 - 1945,http://www.stiftung-bg.de/totenbuch/,www.ghwk.de
Yad Vashem - The Central Database of Shoah Victims' Names,http://db.yadvashem.org/names/search.html?language=en,www.ghwk.de
Visual History Archive,http://sfi.usc.edu/vha/about,www.ghwk.de
Voices of the Holocaust,http://voices.iit.edu/,www.ghwk.de
Aktion Kinder des Holocaust,http://www.akdh.net,www.gedenkstaettenforum.de
Aktion Sühnezeichen Friedensdienste e.V.,http://www.asf-ev.de,www.gedenkstaettenforum.de
Anne Frank Zentrum Berlin,http://www.annefrank.de,www.gedenkstaettenforum.de
Antifaschistische Mahn- und Gedenkstätte in Lieberose,http://www.mwfk.brandenburg.de/cms/detail.php?id=bb2.c.519702.de,www.gedenkstaettenforum.de
Beit Ben Yehuda - International Meeting Centre in Jerusalem,http://www.beit-ben-yehuda.org,www.gedenkstaettenforum.de
Beit Hatfutsot: The Museum of the Jewish People - BethHatefutsoth,http://www.bh.org.il,www.gedenkstaettenforum.de
Beit Theresienstadt / Beit Terezin,http://www.bterezin.org.il,www.gedenkstaettenforum.de
Berliner Geschichtswerkstatt e.V.,http://www.berliner-geschichtswerkstatt.de,www.gedenkstaettenforum.de
Bełżec Memorial Site,http://www.belzec.org.pl/,www.gedenkstaettenforum.de
Bibliothek der Stiftung Topographie des Terrors,http://www.topographie.de/topographie-des-terrors/bibliothek,www.gedenkstaettenforum.de
Bibliothek des Dokumentationszentrums NS-Zwangsarbeit Berlin-Schöneweide,http://www.topographie.de/dz-ns-zwangsarbeit/bibliothek,www.gedenkstaettenforum.de
Bildungs- und Dokumentationsstätte Lindenstraße 54 in Potsdam,http://www.mwfk.brandenburg.de/cms/detail.php?id=bb2.c.519720.de,www.gedenkstaettenforum.de
"Bildungs- und Gedenkstätte ""Opfer der NS-Psychiatrie"" in Lüneburg",http://www.pk.lueneburg.de/gedenkstaette,www.gedenkstaettenforum.de
"Die Auszahlungsprogramme der Stiftung ""Erinnerung, Verantwortung und Zukunft""",http://www.stiftung-evz.de/ns-zwangsarbeit,www.gedenkstaettenforum.de
Dokumentation Obersalzberg,http://www.obersalzberg.de,www.gedenkstaettenforum.de
Dokumentation- und Lernort Baracke Wilhemine	,http://www.baracke-wilhelmine.de,www.gedenkstaettenforum.de
Dokumentations- und Gedenkstätte Sandbostel e.V. (Stalag X B ),http://www.dokumentationsstaette-sandbostel.de,www.gedenkstaettenforum.de
Dokumentations- und Informationszentrum (DIZ) Torgau,http://www.stsg.de/cms/torgau/startseite,www.gedenkstaettenforum.de
Dokumentations- und Informationszentrum für Rassismusforschung DIR e.V.,http://web.uni-marburg.de/dir,www.gedenkstaettenforum.de
Dokumentations- und Kulturzentrum Deutscher Sinti und Roma,http://www.sinti-und-roma.de,www.gedenkstaettenforum.de
Dokumentations- und Kulturzentrum Deutscher Sinti und Roma,http://www.sintiundroma.de,www.gedenkstaettenforum.de
Dokumentationsarchiv des österreichischen Widerstandes,http://www.doew.at,www.gedenkstaettenforum.de
Dokumentationsstätte Konzentrationslager Hersbruck e. V.,http://www.kz-hersbruck-info.de,www.gedenkstaettenforum.de
Dokumentationsstelle Dresden,http://www.dokst.de,www.gedenkstaettenforum.de
Dokumentationszentrum Ehemaliges Reichsparteitagsgelände Nürnberg,http://www.museen.nuernberg.de/dokuzentrum,www.gedenkstaettenforum.de
Dokumentationszentrum NS-Zwangsarbeit Berlin-Schöneweide,http://www.topographie.de/dz-ns-zwangsarbeit/,www.gedenkstaettenforum.de
Dokumentationszentrum Oberer Kuhberg e.V. - KZ-Gedenkstätte-,http://www.dzokulm.telebus.de,www.gedenkstaettenforum.de
Ehemaliges KZ Kochendorf,http://www.lpb.bwue.de/gedenk/gedenkstaetten/de/Broschuere/kochendorf.htm,www.gedenkstaettenforum.de
Erinnern für die Zukunft - Neue Wege des Gedenkens an die NS-Opfer in Mariahilf,http://www.erinnern-fuer-die-zukunft.at,www.gedenkstaettenforum.de
Erinnern für die Zukunft e.V.,http://www.erinnernfuerdiezukunft.de,www.gedenkstaettenforum.de
Erinnern für Gegenwart und Zukunft,http://www.erinnern-online.de,www.gedenkstaettenforum.de
erinnern.at - Verein Nationalsozialismus und Holocaust: Gedächtnis und Gegenwart,http://www.erinnern.at,www.gedenkstaettenforum.de
Erinnerungs- und Forschungsstätte Johann Georg Elser,http://www.lpb.bwue.de/gedenk/gedenkstaetten/de/Broschuere/Koenigsbronn.htm,www.gedenkstaettenforum.de
Erinnerungskultur & Geschichtspolitik (Memorama),http://www.memorama.de,www.gedenkstaettenforum.de
Erinnerungsort Topf & Söhne - Die Ofenbauer von Auschwitz,http://www.topfundsoehne.de,www.gedenkstaettenforum.de
"Erinnerungsstätte ""Männer von Brettheim""",http://www.lpb.bwue.de/gedenk/gedenkstaetten/de/Broschuere/Brettheim.htm,www.gedenkstaettenforum.de
Erinnerungsstätte Lager Weyer,http://members.surfeu.at/lager.weyer/,www.gedenkstaettenforum.de
Erinnerungsstätte Notaufnahmelager Marienfelde,http://www.notaufnahmelager-berlin.de,www.gedenkstaettenforum.de
Evangelische Versöhnungkirche in der KZ-Gedenkstätte Dachau,http://www.versoehnungskirche-dachau.de,www.gedenkstaettenforum.de
Florida Holocaust Museum,http://www.flholocaustmuseum.org,www.gedenkstaettenforum.de
"Fondation Auschwitz Stichting, Centre d´Etudes et de Documentation",http://www.auschwitz.be,www.gedenkstaettenforum.de
Fondation pour la Mémoire de la Déportation,http://fondationmemoiredeportation.com/memoire-de-la-deportation-et-de-l-internement/,www.gedenkstaettenforum.de
Fondation pour la Mémoire de la Shoah,http://www.fondationshoah.org,www.gedenkstaettenforum.de
Förderkreis zur Errichtung eines Denkmales für die ermordeten Juden Europas,http://www.holocaust-denkmal-berlin.de,www.gedenkstaettenforum.de
Förderverein der Gedenkstätte für die Opfer der NS-„Euthanasie“ Bernburg e.V.,http://www.gedenkstaette-bernburg.de,www.gedenkstaettenforum.de
Förderverein für ein Dokumentations- und Begegnungszentrum zur NS-Zwangsarbeit in Berlin-Schöneweide,http://www.zwangsarbeit-in-berlin.de/schoeneweide/index.htm,www.gedenkstaettenforum.de
Forschung zur Zwangsarbeit in Deutschland während des Dritten Reiches,http://www.zwangsarbeit-forschung.de,www.gedenkstaettenforum.de
Forschungsstelle Nachkriegsjustiz,http://www.nachkriegsjustiz.at/,www.gedenkstaettenforum.de
"Fortunoff Video Archive for Holocaust Testimonies, Yale University Library",http://www.library.yale.edu/testimonies,www.gedenkstaettenforum.de
Fritz Bauer Institut,http://www.fritz-bauer-institut.de/,www.gedenkstaettenforum.de
Fritz Bauer Institut. Studien- und Dokumentationszentrum zur Geschichte und Wirkung des Holocaust,http://www.fritz-bauer-institut.de,www.gedenkstaettenforum.de
Galicia Jewish Museum,http://www.de.galiciajewishmuseum.org/,www.gedenkstaettenforum.de
Gedenk- und Begegnungsstätte Leistikowstraße Potsdam,http://www.gedenkstaette-leistikowstrasse.de,www.gedenkstaettenforum.de
Gedenk- und Dokumentationsstätte KZ Drütte,http://www.gedenkstaette-salzgitter.de,www.gedenkstaettenforum.de
GEDENKDIENST - Verein zur Leistung eines Gedenkdienstes an Holocaust-Gedenkstätten,http://www.gedenkdienst.at,www.gedenkstaettenforum.de
"Gedenkkreis Wehnen e.V., Alte Pathologie Wehnen",http://www.gedenkkreis.de,www.gedenkstaettenforum.de
"Gedenkort T4, Tiergartenstraße 4, Berlin",http://www.gedenkort-t4.eu/,www.gedenkstaettenforum.de
Gedenkstaette Bautzen,http://www.stsg.de/cms/bautzen/startseite,www.gedenkstaettenforum.de
Gedenkstaetten Niedersachsen,http://www.gedenkstaetten-niedersachsen.de,www.gedenkstaettenforum.de
"Gedenkstätte ""Seelower Höhen""",http://www.gedenkstaette-seelower-hoehen.de/,www.gedenkstaettenforum.de
Gedenkstätte Augustaschacht,http://www.augustaschacht.de,www.gedenkstaettenforum.de
Gedenkstätte Bergen-Belsen,http://www.bergenbelsen.de,www.gedenkstaettenforum.de
Gedenkstätte Berliner Mauer,http://www.berliner-mauer-gedenkstaette.de,www.gedenkstaettenforum.de
Gedenkstätte Breitenau,http://www.gedenkstaette-breitenau.de,www.gedenkstaettenforum.de
Gedenkstätte Buchenwald,http://www.buchenwald.de,www.gedenkstaettenforum.de
Gedenkstätte der Justizvollzugsanstalt Wolfenbüttel,http://www.nlpb.de/05-gedenk/g6.htm,www.gedenkstaettenforum.de
Gedenkstätte Deutscher Widerstand,http://www.gdw-berlin.de,www.gedenkstaettenforum.de
Gedenkstätte Eckerwald,http://www.lpb.bwue.de/gedenk/gedenkstaetten/de/Broschuere/eckerwald.htm,www.gedenkstaettenforum.de
Gedenkstätte ehemalige Synagoge Michelbach a.d. Lücke,http://www.lpb.bwue.de/gedenk/gedenkstaetten/de/Broschuere/michelbach.htm,www.gedenkstaettenforum.de
Gedenkstätte Ehrenhain-Zeithain,http://www.stsg.de/cms/zeithain/startseite,www.gedenkstaettenforum.de
"Gedenkstätte für ""Euthanasie""-Opfer der Kinder-und Jugendpsychiatrie Marsberg/Nrw",http://www.idiotenfriedhof.de,www.gedenkstaettenforum.de
Gedenkstätte für Opfer der NS-„Euthanasie“ Bernburg,http://www.sachsen-anhalt.de/LPSA/index.php?id=31582,www.gedenkstaettenforum.de
Gedenkstätte Hadamar,http://www.gedenkstaette-hadamar.de,www.gedenkstaettenforum.de
Gedenkstätte Haus der Wannsee-Konferenz,http://www.ghwk.de,www.gedenkstaettenforum.de
Gedenkstätte Konzentrationslager Mauthausen,http://www.mauthausen-memorial.at,www.gedenkstaettenforum.de
Gedenkstätte Konzentrationslager und Strafanstalten Fuhlsbüttel 1933-1945,http://www.hamburg.de/Neuengamme/fuhlsbuettel.html,www.gedenkstaettenforum.de
Gedenkstätte KZ Außenlager Schlieben-Berga e.V.,http://www.schlieben-berga.de/,www.gedenkstaettenforum.de
Gedenkstätte KZ-Außenlager Braunschweig Schillstraße,http://www.schillstrasse.de,www.gedenkstaettenforum.de
Gedenkstätte Münchner Platz Dresden,http://www.stsg.de/cms/dresden/startseite,www.gedenkstaettenforum.de
Gedenkstätte Museum Stutthof,http://www.kki.net.pl/~museum/,www.gedenkstaettenforum.de
Gedenkstätte Pirna-Sonnenstein,http://www.stsg.de/cms/pirna/startseite,www.gedenkstaettenforum.de
Gedenkstätte Plötzensee,http://www.brandenburg.de/land/mwfk/kultur/deutsch/gedenkst/bln/dwd.ploetzenseed.html,www.gedenkstaettenforum.de
Gedenkstätte SA-Gefängnis Papestraße,http://www.gedenkstaette-papestrasse.de,www.gedenkstaettenforum.de
Gedenkstätte Todesmarsch im Belower Wald,http://www.stiftung-bg.de/below,www.gedenkstaettenforum.de
Gedenkstätte und Museum Sachsenhausen,http://www.stiftung-bg.de/gums/de,www.gedenkstaettenforum.de
Gedenkstätte Vulkan,http://www.gedenkstaette-vulkan.de,www.gedenkstaettenforum.de
Gedenkstätten für NS-Opfer in Deutschland,http://www.topographie.de/gedenkstaettenforum/uebersicht/,www.gedenkstaettenforum.de
Gedenkstätten in Baden-Württemberg,http://www.lpb.bwue.de/gedenk/gedenk1.htm,www.gedenkstaettenforum.de
Gedenkstätten Südlicher Oberrhein,http://www.gedenkstaetten-suedlicher-oberrhein.de/gedenkstaetten/,www.gedenkstaettenforum.de
Gedenktstätte und Dokumentationszentrum Grafeneck,http://www.gedenkstaette-grafeneck.de,www.gedenkstaettenforum.de
Gegen Vergessen - Für Demokratie e.V.,http://www.gegen-vergessen.de,www.gedenkstaettenforum.de
German Forced Labour Compensation Programme,http://www.compensation-for-forced-labour.org,www.gedenkstaettenforum.de
Geschichtsort Hotel Silber,http://www.geschichtsort-hotel-silber.de,www.gedenkstaettenforum.de
Geschichtswerkstatt Europa,http://www.geschichtswerkstatt-europa.org,www.gedenkstaettenforum.de
"Gesellschaft ""MEMORIAL""",http://www.memo.ru/deutsch/index.htm,www.gedenkstaettenforum.de
Gleis 69 e.V.,http://www.gleis69.de,www.gedenkstaettenforum.de
Holocaust Center of Northern California (HCNC),http://www.holocaust-sf.org,www.gedenkstaettenforum.de
Holocaust Education Center,http://www.urban.ne.jp/home/hecjpn/indexENGLISH.html,www.gedenkstaettenforum.de
Holocaust Memorial Center,http://www.holocaustcenter.org/index.html,www.gedenkstaettenforum.de
Holocaust Museum Houston,http://www.hmh.org/,www.gedenkstaettenforum.de
Holokausto Lietuvoje atlasas,http://www.holocaustatlas.lt/LT/,www.gedenkstaettenforum.de
House of responsibility (Braunau/Inn),http://www.hrb.at,www.gedenkstaettenforum.de
"HUSUM - ""Hier wird Leben ausgerottet"" / Deutsches Zwangsarbeits-KZ im 2. Weltkrieg -",http://www.ocs.mq.edu.au/~nwitton/index.htm,www.gedenkstaettenforum.de
Initiative Der homosexuellen NS-Opfer gedenken,http://www.gedenk-ort.de,www.gedenkstaettenforum.de
Initiative Mahnmal Homosexuellenverfolgung e.V.,http://www.frankfurter-engel.de,www.gedenkstaettenforum.de
INSMLI - Istituto nazionale per la storia del movimento di liberazione in Italia,http://www.insmli.it/,www.gedenkstaettenforum.de
Institut Terezinske iniciativy / Institut Theresienstadter Initiative,http://www.terezinstudies.cz/,www.gedenkstaettenforum.de
Internationale Jugendbegegnungsstätte  Auschwitz,http://www.mdsm.pl,www.gedenkstaettenforum.de
Internationale Jugendbegegnungsstätte in Oświęcim/Auschwitz,http://www.mdsm.pl/de/,www.gedenkstaettenforum.de
Internationales Auschwitz Komitee,http://www.auschwitz.info,www.gedenkstaettenforum.de
Internationales Sachsenhausen-Komitee,http://www.internationales-sachsenhausen-komitee.eu,www.gedenkstaettenforum.de
"ITS - Internationaler Suchdienst, Bad Arolsen",http://www.its-arolsen.org/english/index.html,www.gedenkstaettenforum.de
"ITS - Internationaler Suchdienst, Bad Arolsen",http://www.its-arolsen.org,www.gedenkstaettenforum.de
Jewish Holocaust Centre Inc,http://www.jhc.org.au,www.gedenkstaettenforum.de
Jewish Museum of Deportation and Resistance,http://www.cicb.be,www.gedenkstaettenforum.de
Jewish Partisan Educational Foundation,http://www.jewishpartisans.org,www.gedenkstaettenforum.de
Joods Historisch Museum / Jewish Historical Museum,http://www.jhm.nl/,www.gedenkstaettenforum.de
"Jüdisches Deportations und Widerstandsmuseum, Belgien",http://www.cicb.be,www.gedenkstaettenforum.de
Jüdisches Museum Berlin,http://www.jmberlin.de,www.gedenkstaettenforum.de
Jüdisches Museum Creglingen,http://www.juedisches-museum-creglingen.de,www.gedenkstaettenforum.de
Jüdisches Museum Göppingen,http://www.lpb.bwue.de/gedenk/gedenkstaetten/de/Broschuere/Jebenhausen.htm,www.gedenkstaettenforum.de
Jüdisches Museum Hohenems,http://www.jm-hohenems.at,www.gedenkstaettenforum.de
Jüdisches Museum Warschau,http://www.jewishmuseum.org.pl/index-gb.html,www.gedenkstaettenforum.de
Jüdisches Museum Westfalen in Dorsten,http://www.jmw-dorsten.de,www.gedenkstaettenforum.de
Juedisches Historisches Institut Warschau,http://www.jewishinstitute.org.pl,www.gedenkstaettenforum.de
Kamp Amersfoort,http://www.kampamersfoort.nl/,www.gedenkstaettenforum.de
Kriegsgefangenenlager Mühlberg/Elbe,http://www.brandenburg.de/land/mwfk/kultur/gedenk/kriegsgefangenenlager.html,www.gedenkstaettenforum.de
KZ - Gedenkstätte Neuengamme,http://fhh1.hamburg.de/Neuengamme/,www.gedenkstaettenforum.de
KZ Gedenkstätte Mittelbau DORA,http://www.dora.de/,www.gedenkstaettenforum.de
KZ-Gedenkstaette Ladelund,http://www.kz-gedenkstaette-ladelund.de,www.gedenkstaettenforum.de
KZ-Gedenkstätte Bisingen,http://www.lpb.bwue.de/gedenk/gedenkstaetten/ de/Broschuere/Bisingen.htm,www.gedenkstaettenforum.de
KZ-Gedenkstätte Dachau,http://www.kz-gedenkstaette-dachau.de,www.gedenkstaettenforum.de
KZ-Gedenkstätte Flossenbürg,http://www.gedenkstaette-flossenbuerg.de,www.gedenkstaettenforum.de
KZ-Gedenkstätte im Torhaus Moringen,http://www.gedenkstaette-moringen.de,www.gedenkstaettenforum.de
KZ-Gedenkstätte Mannheim-Sandhofen,http://www.kz-gedenkstaette-sandhofen.de/,www.gedenkstaettenforum.de
KZ-Gedenkstätte Neckarelz,http://www.kz-denk-neckarelz.de/,www.gedenkstaettenforum.de
KZ-Gedenkstätte und Widerstandsmuseum Ebensee,http://www.ebensee.org/,www.gedenkstaettenforum.de
KZ-Gedenkstätte Vaihingen/Enz,http://www.gedenkstaette-vaihingen.de/,www.gedenkstaettenforum.de
La Coupole. Centre d'histoire de la guerre et des fusées,http://www.lacoupole.com/,www.gedenkstaettenforum.de
La Risiera di San Sabba,http://www.windcloak.it/cultura/risiera/laris.htm,www.gedenkstaettenforum.de
Lagergemeinschaft Buchenwald-Dora Freundeskreis e.V,http://www.lagergemeinschaft-buchenwald.de,www.gedenkstaettenforum.de
Le Mémorial de Caen. Un musée pour la paix.,http://www.memorial.fr,www.gedenkstaettenforum.de
Le Patriote Résistant (publication mensuelle de la FNDIRP),http://www.fndirp.asso.fr/patriot.htm,www.gedenkstaettenforum.de
Learning from History,http://www.holocaust-education.de,www.gedenkstaettenforum.de
Lern- und Gedenkort Schloss Hartheim,http://www.schloss-hartheim.at,www.gedenkstaettenforum.de
Lietuvos politiniu kaliniu ir tremtiniu sajunga (LPKTS) / Union of lithuanian political prisoners and deportees,http://www.lpkts.lt,www.gedenkstaettenforum.de
London Jewish Cultural Centre (former Spiro Institute),http://www.ljcc.org.uk,www.gedenkstaettenforum.de
Los Angeles Museum of the Holocaust,http://www.jewishla.org/html/l.a._holocaust_museum.htm,www.gedenkstaettenforum.de
Mahn- und Gedenkstätte Düsseldorf,http://www.ns-gedenkstaetten.de/nrw/duesseldorf/index_2.php3,www.gedenkstaettenforum.de
Mahn- und Gedenkstätte Ravensbrück,http://www.ravensbrueck.de,www.gedenkstaettenforum.de
Mahn- und Gedenkstätte Wöbbelin,http://www.kz-woebbelin.de,www.gedenkstaettenforum.de
Mahn-und Gedenkstätte Ravensbrück,http://www.ravensbrueck.de,www.gedenkstaettenforum.de
"Maison d’Izieu, mémorial des enfants juifs exterminés",http://www.memorializieu.eu/spip.php?rubrique43&lang=de,www.gedenkstaettenforum.de
March of the Living International,http://www.motl.org,www.gedenkstaettenforum.de
Massuah Institute for the Study of the Holocaust,http://www.massuah.org,www.gedenkstaettenforum.de
Mauthausen Aktiv - Kärnten/Koroska,http://loibl-memorial.uni-klu.ac.at,www.gedenkstaettenforum.de
Maximilian-Kolbe-Werk e. V.,http://www.maximilian-kolbe-werk.de,www.gedenkstaettenforum.de
Memoria Abierta,http://www.memoriaabierta.org.ar/,www.gedenkstaettenforum.de
Memorial and Museum Auschwitz-Birkenau / Gedenkstätte und Museum Auschwitz-Birkenau,http://www.auschwitz.org.pl,www.gedenkstaettenforum.de
Mémorial de la Shoah - Helene Berr,http://www.memorialdelashoah.org/upload/minisites/helene_berr/index.html,www.gedenkstaettenforum.de
Memorium Nürnberger Prozesse,http://www.memorium-nuernberg.de/,www.gedenkstaettenforum.de
Moses Mendelssohn Zentrum,http://www.mmz-potsdam.de/1024/index.htm,www.gedenkstaettenforum.de
Musée de la Résistance Azuréenne,http://resistance.azur.free.fr,www.gedenkstaettenforum.de
Musée de la Résistance et de la Déportation - La Citatelle,http://www.besancon.com/musees/francais/resist.htm,www.gedenkstaettenforum.de
Musée de la Résistance et de la Déportation de Bourges et du Cher,http://www.musee-resistance.com/visGuid/musees/bourges.asp,www.gedenkstaettenforum.de
Musée de la Résistance et de la Déportation de Givors,http://www.musee-resistance.com/visGuid/musees/givors.asp,www.gedenkstaettenforum.de
Musée de la Résistance et de la Déportation de l'Isère,http://www.resistance-en-isere.com,www.gedenkstaettenforum.de
Musée de la Résistance Nationale de Champigny-sur-Marne,http://www.musee-resistance.com/visGuid/musees/champigny.asp,www.gedenkstaettenforum.de
Musée mémorial des enfants d'Izieu,http://www.izieu.alma.fr,www.gedenkstaettenforum.de
Musée Vauzélien de la Résistance Nationale,http://www.musee-resistance.com/visGuid/musees/varennes.asp,www.gedenkstaettenforum.de
Musée-mémorial des enfants d'Izieu,http://www.izieu.alma.fr,www.gedenkstaettenforum.de
"Museum ""Haus am Checkpoint Charlie""",http://www.mauer-museum.com/,www.gedenkstaettenforum.de
Museum Blindenwerkstatt Otto Weidt,http://www.museum-blindenwerkstatt.de,www.gedenkstaettenforum.de
Museum of Jewish Heritage,http://www.mjhnyc.org,www.gedenkstaettenforum.de
Museum of Romani culture,http://www.rommuz.cz,www.gedenkstaettenforum.de
Museum Tuvie Maizel in Mexiko-Stadt,http://www.museojudiomexico.com.mx/museojudiomexico/,www.gedenkstaettenforum.de
Nationaal Oorlogs- en Verzetsmuseum Overloon / Nationales Kriegs- und Widerstandsmuseum,http://www.oorlogsmuseum-overloon.nl,www.gedenkstaettenforum.de
National Monument Camp Vught,http://www.nmkampvught.nl,www.gedenkstaettenforum.de
Nederlands Instituut voor Oorlogsdocumentatie / Netherlands Institute for War Documentation,http://www.oorlogsdoc.knaw.nl/,www.gedenkstaettenforum.de
Norges Hjemmefrontmuseum (Norwegische Widerstandsmuseum),http://www.nhm.mil.no,www.gedenkstaettenforum.de
NS-Dokumentationsstelle der Stadt Krefeld / Villa Merländer,http://www.ns-gedenkstaetten.de/nrw/de/krefeld/thema_1/,www.gedenkstaettenforum.de
NS-Dokumentationszentrum Rheinland-Pfalz - Gedenkstätte KZ Osthofen,http://www.projektosthofen-gedenkstaette.de,www.gedenkstaettenforum.de
Okupatsioonimuuseum / Museum of Occupation,http://www.okupatsioon.ee/,www.gedenkstaettenforum.de
Österreichischer Auslandsdienst,http://www.auslandsdienst.at,www.gedenkstaettenforum.de
Österreichischer Gedenkdienst,http://www.gedenkdienst.de,www.gedenkstaettenforum.de
Pädagogisch-kulturelles Centrum ehemalige Synagoge Freudental e.V.,http://www.pkc-freudental.de/,www.gedenkstaettenforum.de
Památník Terezín,http://www.pamatnik-terezin.cz/,www.gedenkstaettenforum.de
RE.F.U.G.I.U.S. - Rechnitzer Flüchtlings- und Gedenkinitiative und Stiftung,http://www.kbk.at/refugius,www.gedenkstaettenforum.de
"Stiftung ""Erinnerung, Verantwortung und Zukunft""",http://www.stiftung-evz.de,www.gedenkstaettenforum.de
Stiftung Berliner Mauer,http://www.stiftung-berliner-mauer.de,www.gedenkstaettenforum.de
Stiftung Brandenburgische Gedenkstätten,http://www.stiftung-bg.de,www.gedenkstaettenforum.de
Stiftung Denkmal für die ermordeten Juden Europas,http://www.holocaust-mahnmal.de,www.gedenkstaettenforum.de
Stiftung Kreisau,http://www.krzyzowa.org.pl/de/index.html,www.gedenkstaettenforum.de
Stiftung Kreisau fuer europaeische Verstaendigung,http://www.krzyzowa.org.pl,www.gedenkstaettenforum.de
Stiftung Oktober 44,http://www.oktober44.nl,www.gedenkstaettenforum.de
Stiftung Sächsische Gedenkstätten,http://www.stsg.de,www.gedenkstaettenforum.de
Stiftung Topographie des Terrors,http://www.topographie.de,www.gedenkstaettenforum.de
Stiftung zur Aufarbeitung der SED-Diktatur,http://www.stiftung-aufarbeitung.de,www.gedenkstaettenforum.de
Sydney Jewish Holocaust Museum and Research Center,http://www.sydneyjewishmuseum.com.au,www.gedenkstaettenforum.de
"Task Force for International Cooperation on Holocaust Education, Remembrance and Research",http://www.holocausttaskforce.org,www.gedenkstaettenforum.de
The Galicia Jewish Museum,http://www.galiciajewishmuseum.org,www.gedenkstaettenforum.de
The Holocaust Centre Beth Shalom,http://www.bethshalom.com,www.gedenkstaettenforum.de
The Holocaust Memorial Resource and Education Center of central Florida,http://www.holocaustedu.org/,www.gedenkstaettenforum.de
The Jewish Museum of Riga,http://www.shtetlinks.jewishgen.org/riga/JewishMuseumofRiga.htm,www.gedenkstaettenforum.de
THE NATIONAL D-DAY MUSEUM,http://www.ddaymuseum.org/,www.gedenkstaettenforum.de
The Occupation Museum of Latvia (1940 - 1991),http://www.occupationmuseum.lv/,www.gedenkstaettenforum.de
The Stockholm International Forum on the Holocaust,http://www.holocaustforum.gov.se,www.gedenkstaettenforum.de
The Yad Vashem Charitable Trust,http://www.yadvashem.org.uk,www.gedenkstaettenforum.de
Union des Résistants et Déportés Juifs de France,http://www.cie.fr/urdf,www.gedenkstaettenforum.de
USC Shoah Foundation Institute for Visual History and Education,http://www.vhf.org,www.gedenkstaettenforum.de
"Verein ""ERINNERN"" Villach",http://www.net4you.net/erinnern,www.gedenkstaettenforum.de
"Verein ""Niemals Vergessen""",http://www.gedenkdienst.com,www.gedenkstaettenforum.de
Verein Schloss Hartheim,http://members.aon.at/schloss-hartheim,www.gedenkstaettenforum.de
Vereinigung der Verfolgten des Naziregimes - Bund der Antifaschistinnen und Antifaschisten,http://www.vvn-bda.de,www.gedenkstaettenforum.de
Verzetsmuseum.Amsterdam,http://www.verzetsmuseum.org/home.html,www.gedenkstaettenforum.de
Villa ten Hompel,http://www.muenster.de/stadt/villa-ten-hompel/index.html,www.gedenkstaettenforum.de
Virginia Holocaust Museum,http://www.va-holocaust.com/,www.gedenkstaettenforum.de
Wewelsburg 1933 – 1945 Erinnerungs- und Gedenkstätte,http://www.wewelsburg.de,www.gedenkstaettenforum.de
"Wiener Library, London",http://www.wienerlibrary.co.uk,www.gedenkstaettenforum.de
Wilhelm-Leuschner-Zentrum/Wilhelm-Leuschner-Gedenkstätte/Wilhelm-Leuschner-Stiftung,http://www.wilhelm-leuschner-stiftung.de/,www.gedenkstaettenforum.de
World Federation of Jewish Child Survivors of the Holocaust (WFJCSH),http://www.wfjcsh.org,www.gedenkstaettenforum.de
Yad Vashem,http://www1.yadvashem.org/education/index_education.html,www.gedenkstaettenforum.de
------ END OF SECOND APPROVED BATCH -------
STRATY OSOBOWE I OFIARY REPRESJI POD OKUPACJ¡ NIEMIECK¡,http://www.straty.pl,www.fpnp.pl
URZ¡D DO SPRAW KOMBATANTÓW I OSÓB REPRESJONOWANYCH,http://www.udskior.gov.pl/,www.fpnp.pl
FUNDACJA O¦RODKA KARTA,http://www.karta.org.pl/,www.fpnp.pl
DOM SPOTKAÑ Z HISTORI¡,http://www.dsh.waw.pl/,www.fpnp.pl
MUZEUM HISTORII POLSKI,http://mhp.org.pl/,www.fpnp.pl
FUNDACJA MOJE WOJENNE DZIECIÑSTWO,http://www.mojewojennedziecinstwo.pl/,www.fpnp.pl
NIEMCY-ONLINE.PL,http://www.niemcy-online.pl/,www.fpnp.pl
Muzeum II Wojny ¦wiatowej,http://www.muzeum1939.pl/pl/,www.fpnp.pl
Narodowe Centrum Kultury,http://www.nck.pl/,www.fpnp.pl
Muzeum Powstania Warszawskiego,http://www.1944.pl/,www.fpnp.pl
RADA OCHRONY PAMIÊCI WALK i MÊCZEÑSTWA,http://www.radaopwim.gov.pl/,www.fpnp.pl
Fundacja Wspó³pracy Polsko-Niemieckiej,http://www.fwpn.org.pl/,www.fpnp.pl
Polsko-Niemiecka Wspó³praca M³odzie¿y,http://www.dpjw.org/html/index.php,www.fpnp.pl
United Nations,http://www.un.org/en/holocaustremembrance/,www.holocaustremembrance.com
UNESCO,https://en.unesco.org/,www.holocaustremembrance.com
OSCE/ODIHR,http://www.osce.org/odihr,www.holocaustremembrance.com
International Tracing Service,https://www.its-arolsen.org/en/?caller=1,www.holocaustremembrance.com
European Agency for Fundamental Rights,http://fra.europa.eu/en,www.holocaustremembrance.com
Council of Europe,https://www.coe.int/en/web/portal/home,www.holocaustremembrance.com
Conference on Jewish Material Claims against Germany,http://www.claimscon.org/,www.holocaustremembrance.com
"NIOD-KNAW. Institute for War, Holocaust and Genocide Studies (Netherlands, coordinator)",http://www.niod.nl/,www.ehri-project.eu
DANS-KNAW. Data Archiving and Networked Services (Netherlands),http://www.dans.knaw.nl/,www.ehri-project.eu
CEGES-SOMA. Centre for Historical Research and Documentation on War and Contemporary Society (Belgium),http://www.cegesoma.be/cms/index_en.php,www.ehri-project.eu
Jewish Museum in Prague (Czech Republic),http://www.jewishmuseum.cz/aindex.php,www.ehri-project.eu
Institute for Contemporary History Munich - Berlin (Germany),http://www.ifz-muenchen.de/,www.ehri-project.eu
Yad Vashem. The Holocaust Martyrs and Heroes Remembrance Authority (Israel),http://www.yadvashem.org/,www.ehri-project.eu
The Wiener Library for the Study of the Holocaust & Genocide (UK),http://www.wienerlibrary.co.uk/,www.ehri-project.eu
Holocaust Memorial Center (Hungary),http://www.hdke.hu/,www.ehri-project.eu
HL-senteret. Centre for Studies of Holocaust and Religious Minorities (Norway),http://www.hlsenteret.no/,www.ehri-project.eu
National Archives of Finland (NAF) (Finland),http://www.arkisto.fi/,www.ehri-project.eu
The Emanuel Ringelblum Jewish Historical Institute (Poland),http://www.jhi.pl/en,www.ehri-project.eu
King's College London (UK),http://www.kcl.ac.uk/index.aspx,www.ehri-project.eu
Georg-August-Universität Goettingen (Germany),http://www.uni-goettingen.de/,www.ehri-project.eu
Athena RC/IMIS (Greece),http://www.athena-innovation.gr/,www.ehri-project.eu
"Shoah Memorial, Museum, Center for Contemporary Jewish Documentation (France)",http://www.memorialdelashoah.fr/,www.ehri-project.eu
International Tracing Service (ITS) (Germany),http://www.its-arolsen.org/en/homepage/index.html,www.ehri-project.eu
Memorial to the Murdered Jews of Europe (Germany),http://www.stiftung-denkmal.de/,www.ehri-project.eu
Terezín Memorial (Czech Republic),http://www.pamatnik-terezin.cz/,www.ehri-project.eu
Beit Theresienstadt (Israel),http://www.bterezin.org.il/,www.ehri-project.eu
VWI. Vienna Wiesenthal Institute for Holocaust Studies (Austria),http://www.vwi.ac.at/,www.ehri-project.eu
"Arbeitsgemeinschaft Bund der ""Euthanasie""-Geschädigten und Zwangssterilisierten",http://euthanasiegeschaedigte-zwangssterilisierte.de,www.gedenkstaette-hadamar.de
Arbeitskreis der NS-Gedenkstätten in NRW e.V.,http://www.ns-gedenkstaetten.de,www.gedenkstaette-hadamar.de
Bundesarchiv Berlin,http://www.bundesarchiv.de/benutzung/zeitbezug/nationalsozialismus/00303/index.html.de,www.gedenkstaette-hadamar.de
Bundesverband Information und Beratung für NS-Verfolgte e.V.,http://www.nsberatung.de,www.gedenkstaette-hadamar.de
Bundesverband Psychiatrie-Erfahrener e.V.,http://www.bpe-online.de/,www.gedenkstaette-hadamar.de
Denkzeichen,http://www.denkzeichen.de/,www.gedenkstaette-hadamar.de
Dokumentationsstelle Brandenburg,http://www.stiftung-bg.de/doku/index.html,www.gedenkstaette-hadamar.de
Gedenkstätte Bernburg,http://www.sachsen-anhalt.de/LPSA/index.php?id=31582,www.gedenkstaette-hadamar.de
Gedenkstätte Grafeneck,http://www.gedenkstaette-grafeneck.de/,www.gedenkstaette-hadamar.de
Stolpersteine in Hadamar,http://www.hadamar.de/index.php?m1=1&m2=1&show=1&navi_type=3&h1=3&h2=210&h3=234,www.gedenkstaette-hadamar.de
Gedenkstätte Pirna-Sonnenstein,http://www.stsg.de/main/pirna/ueberblick/einfuehrung/,www.gedenkstaette-hadamar.de
Gedenkstättenforum,http://www.gedenkstaettenforum.de/,www.gedenkstaette-hadamar.de
Lernen aus der Geschichte,http://www.lernen-aus-der-geschichte.de/,www.gedenkstaette-hadamar.de
Lern- und Gedenkort Schloss Hartheim,http://www.schloss-hartheim.at,www.gedenkstaette-hadamar.de
Landeswohlfahrtsverband Hessen,http://www.lwv-hessen.de,www.gedenkstaette-hadamar.de
Mensch zuerst - Netzwerk People First,http://www.people1.de,www.gedenkstaette-hadamar.de
Stadt Hadamar,http://www.hadamar.de/,www.gedenkstaette-hadamar.de
United States Holocaust Memorial Museum,http://www.ushmm.org/,www.gedenkstaette-hadamar.de
http://www.magdabrown.com/,http://www.magdabrown.com/,www.diz-stadtallendorf.de
https://sms-schulmuseumstadtallendorf.jimdo.com/,https://sms-schulmuseumstadtallendorf.jimdo.com/,www.diz-stadtallendorf.de
Stadtallendorf,http://www.stadtallendorf.de,www.diz-stadtallendorf.de
Georg-Büchner-Schule Stadtallendorf,http://georg-buechner.stadtallendorf.schule.hessen.de/,www.diz-stadtallendorf.de
Gedenkstätte Breitenau,http://www.gedenkstaette-breitenau.de/,www.diz-stadtallendorf.de
Gedenkstätte Hadamar,http://www.gedenkstaette-hadamar.de,www.diz-stadtallendorf.de
Gedenkstätte und Museum Trutzhain,http://www.gedenkstaette-trutzhain.de/,www.diz-stadtallendorf.de
Historischer Lehrpfad zum ehemaligen KZ-Außenlager Walldorf,http://www.kz-walldorf.de/,www.diz-stadtallendorf.de
Erinnerungsstätte zur Geschichte der Luftmunitionsanstalt Hartmannshain,http://www.muna-grebenhain.de/,www.diz-stadtallendorf.de
Landesarbeitsgemeinschaft der Gedenkstätten in Hessen,http://www.gedenken-in-hessen.de/,www.diz-stadtallendorf.de
Topographie des Terrors,https://forum-lag.jimdo.com/,www.diz-stadtallendorf.de
Forum der Landesarbeitsgemeinschaften,https://forum-lag.jimdo.com/,www.diz-stadtallendorf.de
Hessische Landeszentrale für politische Bildung,http://www.hlz.hessen.de/,www.diz-stadtallendorf.de
Landkreis Marburg-Biedenkopf,http://www.marburg-biedenkopf.de,www.diz-stadtallendorf.de
Hessischer Museumsverband,http://www.museumsverband-hessen.de/de/aktuelles/themen-und-meldungen,www.diz-stadtallendorf.de
Institut für Zeitgeschichte der Universität Wien,http://gedenkbuch.univie.ac.at/,www.diz-stadtallendorf.de
www.holtz-films.com,http://www.holtz-films.com/,www.diz-stadtallendorf.de
Gedenkstätte Senne,http://www.stalag326.de/,www.gedenkstaette-trutzhain.de
Stiftung Topographie des Terrors,http://www.topographie.de/,www.gedenkstaette-trutzhain.de
Stiftung Niedersächsische Gedenkstätten,http://www.stiftung-ng.de/,www.gedenkstaette-trutzhain.de
Gedenkstätte Breitenau,http://www.gedenkstaette-breitenau.de/,www.gedenkstaette-trutzhain.de
Dokumentations- und Informationszentrum Stadtallendorf,http://www.diz-stadtallendorf.de/,www.gedenkstaette-trutzhain.de
Gedenkstätte Hadamar,http://www.gedenkstaette-hadamar.de/,www.gedenkstaette-trutzhain.de
Gedenkstätte Sandbostel,http://www.gedenkstaette-sandbostel.de/,www.gedenkstaette-trutzhain.de
Gedenkstätte Ehrenhain Zeithain,http://www.stsg.de/,www.gedenkstaette-trutzhain.de
Muna-Museum-Grebenhain,http://www.muna-grebenhain.de/,www.gedenkstaette-trutzhain.de
Studienkreis Deutscher Widerstand 1933 – 1945,http://www.widerstand-1933-1945.de/,www.gedenkstaette-trutzhain.de
Stadt Schwalmstadt,http://www.schwalmstadt.de/,www.gedenkstaette-trutzhain.de
Landkreis Schwalm-Eder,http://www.schwalm-eder-kreis.de/,www.gedenkstaette-trutzhain.de
"ITS – Internationaler Suchdienst, Bad Arolsen",http://www.its-arolsen.org/,www.gedenkstaette-trutzhain.de
Fritz Bauer Institut,http://www.fritz-bauer-institut.de/,www.gedenkstaette-trutzhain.de
Bundeszentrale für politische Bildung,http://www.bpb.de/,www.gedenkstaette-trutzhain.de
Hessische Landeszentrale für politische Bildung,http://www.hlz.hessen.de/,www.gedenkstaette-trutzhain.de
Hessischer Museumsverband,http://www.museumsverband-hessen.de/,www.gedenkstaette-trutzhain.de
LAG der Gedenkstätten und Erinnerungsinitiativen zur NS-Zeit in Hessen,http://www.gedenken-in-hessen.de/,www.gedenkstaette-trutzhain.de
Gedenkstättenforum,http://www.gedenkstaettenforum.de/,www.gedenkstaette-trutzhain.de
Dokumentations- und Informationszentrum Stadtallendorf,http://www.diz-stadtallendorf.de/,www.muna-grebenhain.de
GedenkstÃ¤tte und Museum Trutzhain,http://www.gedenkstaette-trutzhain.de/,www.muna-grebenhain.de
GedenkstÃ¤tte Breitenau,http://www.gedenkstaette-breitenau.de/,www.muna-grebenhain.de
LAG der GedenkstÃ¤tten und Erinnerungsinitiativen in Hessen,http://www.gedenken-in-hessen.de/,www.muna-grebenhain.de
Hessischer Museumsverband (HMV),http://www.museumsverband-hessen.de/,www.muna-grebenhain.de
Hessischer MuseumsfÃ¼hrer (HMV),http://museen-in-hessen.de/,www.muna-grebenhain.de
Museumslandschaft Oberhessen,http://www.museumslandschaft-oberhessen.de/,www.muna-grebenhain.de
Route der Industriekultur Mittelhessen,http://www.industriekultur-mittelhessen.de/,www.muna-grebenhain.de
Tage der Industriekultur Mittelhessen,http://www.mittelhessen.eu/mit-uns/arbeitskreise/arbeitskreis-route-industriekultur-mittelhessen/,www.muna-grebenhain.de
Oberwaldschule Grebenhain,http://www.oberwaldschule-grebenhain.de/,www.muna-grebenhain.de
Ortsgeschichte Bermuthshain,http://www.chronik-bermuthshain.de/,www.muna-grebenhain.de
Ortsgeschichte Crainfeld,http://www.chronik-crainfeld.de/,www.muna-grebenhain.de
Geschichtsverein Freiensteinau e. V.,http://www.blaueseck.de/,www.muna-grebenhain.de
Vogelsbergkreis,http://www.vogelsbergkreis.de/,www.muna-grebenhain.de
Region Vogelsberg Touristik,http://www.vogelsberg-touristik.de/,www.muna-grebenhain.de
Vulkanradweg,http://www.vulkanradweg.de/,www.muna-grebenhain.de
DÃ¤sch Gastronomie Bermuthshain,http://www.daesch.de/,www.muna-grebenhain.de
Luftkurort Ilbeshausen-Hochwaldhausen,http://www.ilbeshausen-hochwaldhausen.de/,www.muna-grebenhain.de
Hartmannshain und Herchenhain,http://www.hartmannshain-herchenhain.de/,www.muna-grebenhain.de
Struthof,http://www.struthof.fr/,www.oradour.org
Mémorial de Caen,http://www.memorial-caen.fr/,www.oradour.org
Mémorial Charles de Gaulle,http://www.memorial-charlesdegaulle.fr/,www.oradour.org
Musée de la Résistance nationale,http://www.musee-resistance.com/,www.oradour.org
Musée de la Résistance et de la Déportation d'Angoulême,http://musee.delaresistance.free.fr/,www.oradour.org
CHRD Lyon,http://www.chrd.lyon.fr/chrd/,www.oradour.org
Musée de la Résistance et de la Déportation de Besançon,http://www.besancon.fr/index.php?p=625,www.oradour.org
"Centre Régional "" Résistance et Liberté "" de Thouars",http://www.crrl.fr/,www.oradour.org
Musée de la Résistance et de la Déportation en Isère,http://www.resistance-en-isere.fr/indexPreHome.php,www.oradour.org
Le conservatoire historique du Camp de Drancy,http://www.camp-de-drancy.asso.fr,www.oradour.org
Camp des Milles,http://www.campdesmilles.org/,www.oradour.org
Mémorial de la Shoah,http://www.memorialdelashoah.org/index.php/fr/,www.oradour.org
Maison d'Izieu,http://www.memorializieu.eu/spip.php,www.oradour.org
La Coupole - Centre d'histoire et de mémoire du Nord,http://www.lacoupole-france.com/le-centre-dhistoire/presentation/introduction.html,www.oradour.org
L’Historial de Péronne,http://www.historial.org,www.oradour.org
Musée de l'histoire de l’immigration,http://www.histoire-immigration.fr,www.oradour.org
Mémorial Ascq 1944,http://shvam.com/wordpress/?p=1091,www.oradour.org
Centre d'études et musée Edmond-Michelet,http://museemichelet.brive.fr,www.oradour.org
Camp de concentration de Dachau,http://www.kz-gedenkstaette-dachau.de,www.oradour.org
Camp de concentration de Buchenwald,http://www.buchenwald.de,www.oradour.org
Mémorial pour la résistance allemande,http://www.gdw-berlin.de,www.oradour.org
Pulverfabrik Liebenau,http://www.martinguse.de/pulverfabrik,www.oradour.org
Centre de documentation de la ville de Nuremberg,http://www.museen.nuernberg.de/reichsparteitag/index_reichsparteitag.html,www.oradour.org
Mémorial pour les Juifs européens assassinés,http://www.holocaust-mahnmal.de,www.oradour.org
Maison de la conférence de Wannsee Mémorial et Centre pédagogique,http://www.ghwk.de,www.oradour.org
Action Signe de RéconciliationServices pour la paix (ASF),http://www.asf-ev.de,www.oradour.org
Documentation d’Obersalzberg,http://www.obersalzberg.de,www.oradour.org
Centre de documentation et mémorial du camp de concentration Oberer Kuhberg Ulm,http://www.dzokulm.telebus.de,www.oradour.org
Mémorial de Bautzen,http://www.gedenkstaette-bautzen.de,www.oradour.org
Mémorial Ehrenhain Zeithain,http://www.stsg.de/cms/zeithain/startseite,www.oradour.org
Mémorial Château de Hartheim,http://www.schloss-hartheim.at,www.oradour.org
La maison de la responsabilité,http://www.hrb.at,www.oradour.org
Mémorial du camp de concentration de Mauthausen,http://www.mauthausen-memorial.at,www.oradour.org
Fondation Kleinmann sur l'histoire de l'Holocauste,http://www.kffeducation.org,www.oradour.org
Lieu commémoratif et Musée de Auschwitz-Birkenau,http://www.auschwitz.org.pl/,www.oradour.org
Maison d’Anne Frank,http://www.annefrank.org,www.oradour.org
Musée de la résistance Hollandaise,http://www.verzetsmuseum.org,www.oradour.org
Le réseau d’espaces de Mémoire Démocratique de Catalogne,http://memorialdemocratic.gencat.cat,www.oradour.org
Fondation musée pour la Paix de Gernica,http://www.museodelapaz.org,www.oradour.org
Complexe commémoratif de Khatyn,http://www.khatyn.by/en,www.oradour.org
Centre André Malraux,http://www.malraux.ba,www.oradour.org
Association nationale des familles des martyrs d'Oradour sur Glane,http://www.anfmog.fr/accueil.html,www.oradour.org
Cidem,http://www.cidem.org,www.oradour.org
Europe de la mémoire,http://www.europedelamemoire.org,www.oradour.org
Fédération Nationale des Déportés et Internés Résistants et Patriotes,http://www.fndirp.asso.fr,www.oradour.org
Union Nationale des Associations de Déportés Internés et Familles de disparus,http://www.unadif.fr/,www.oradour.org
Fondation pour la mémoire de la déportation,http://www.fmd.asso.fr,www.oradour.org
Conseil Départemental de la Haute-Vienne,http://www.cg87.fr,www.oradour.org
Conseil régional du Limousin,http://www.cr-limousin.fr/index.php3,www.oradour.org
Académie de Limoges,http://www.ac-limoges.fr,www.oradour.org
Préfecture de la Haute-Vienne et de la région Limousin,http://www.haute-vienne.pref.gouv.fr,www.oradour.org
"DMPA – Direction de la Mémoire, du Patrimoine et des Archives",http://www.cheminsdememoire.gouv.fr,www.oradour.org
Ville d’Oradour-sur-Glane,http://www.oradour-sur-glane.fr/,www.oradour.org
Le 70ème,http://www.le70e.fr/,www.oradour.org
Cheminsdememoire,http://www.cheminsdememoire.gouv.fr/,www.oradour.org
Mémoire et patrimoine,http://www.defense.gouv.fr/site-memoire-et-patrimoine,www.oradour.org
Mémoire des hommes,http://www.memoiredeshommes.sga.defense.gouv.fr/fr/article.php?laref=1,www.oradour.org
Pôle culturel La Mégisserie-Saint-Junien,http://www.lamegisserie.com,www.oradour.org
Musée des Beaux Arts de Limoges,http://www.museebal.fr,www.oradour.org
Bibilothèque Francophone Multimédia Limoges,http://www.bm-limoges.fr/,www.oradour.org
Centre International d’Art et du Paysage de l’Ile de Vassivière,http://www.ciapiledevassiviere.com/,www.oradour.org
Musée d’Art Contemporain de Rochechouart,http://www.musee-rochechouart.com,www.oradour.org
Musée du Président Jacques Chirac ,http://www.museepresidentjchirac.fr,www.oradour.org
Musée départemental de la tapisserie d'Aubusson ,http://www.cite-tapisserie.fr,www.oradour.orgAusstellung zur NS-Medizin in Wien (DÖW),http://www.gedenkstaettesteinhof.at,www.schloss-hartheim.at
Bildungs- und Gedenkstätte ""Opfer der NS-Psychiatrie in Lüneburg (D),http://www.pk.lueneburg.de/gedenkstaette/,www.schloss-hartheim.at
Denkzeichen Vergangenheit ist Gegenwart,http://www.denkzeichen.de,www.schloss-hartheim.at
Erinnern - Villach,http://www.net4you.com/haiderftp/,www.schloss-hartheim.at
Gedächtnisbuch für die Häftlinge des KZ Dachau,http://www.gedaechtnisbuch.de/,www.schloss-hartheim.at
Gedenkdienst,http://www.auslandsdienst.at/,www.schloss-hartheim.at
Gedenkstätte Bernburg,http://www.gedenkstaette-bernburg.de/,www.schloss-hartheim.at
Gedenkstätte Grafeneck,http://www.gedenkstaette-grafeneck.de/,www.schloss-hartheim.at
Gedenkstätte Hadamar,http://www.gedenkstaette-hadamar.de/,www.schloss-hartheim.at
Gedenkstätte Loibl KZ Nord,http://loibl-memorial.uni-klu.ac.at,www.schloss-hartheim.at
Gedenkstätte Pirna-Sonnenstein,http://www.stsg.de,www.schloss-hartheim.at
Gedenkstätten in Deutschland,http://www.ns-gedenkstaetten.de,www.schloss-hartheim.at
Gedenkstättenforum,http://www.gedenkstaettenforum.de,www.schloss-hartheim.at
Internationale Gedenkstättenübersicht,http://www.gedenkstaetten-uebersicht.de,www.schloss-hartheim.at
KZ-Gedenkstätte Gusen,http://www.gusen-memorial.at/entre.php,www.schloss-hartheim.at
KZ Gedenkstätte Mauthausen,http://www.mauthausen-memorial.at,www.schloss-hartheim.at
KZ-Gedenkstätte und Zeitgeschichte Museum Ebensee,http://www.memorial-ebensee.at,www.schloss-hartheim.at
Mahnmal eh. Gestapoleitstelle Morzinplatz Wien,http://www.nachkriegsjustiz.at/vgew/1010_morzinplatz.php,www.schloss-hartheim.at
"Mahnmal gegen Krieg und Faschismus, Albertinaplatz, Wien",http://www.nachkriegsjustiz.at/vgew/1010_alb.php,www.schloss-hartheim.at
Museum Gedenkstätte Peršmanhof,http://www.persman.at,www.schloss-hartheim.at
Oradour - centre de la mémoire. ORADOUR - SUR - GLANE. Village Martyr,http://www.oradour.org,www.schloss-hartheim.at
R.E.F.U.G.I.U.S. Kreuzstadl Rechnitz,http://www.refugius.at,www.schloss-hartheim.at
Schloss Lind,http://www.schlosslind.at,www.schloss-hartheim.at
Stolpersteine,http://www.stolpersteine.com,www.schloss-hartheim.at
"Topographie des Terrors, Berlin",http://www.topographie.de,www.schloss-hartheim.at
Vergessene Opfer – Euthanasie in der Steiermark,http://www.korso.at/korso/thema/feldhof1200.htm,www.schloss-hartheim.at
Yad Vashem,http://www.yad-vashem.de,www.schloss-hartheim.at
Archiv der Stadt Linz,http://www.linz.at/archiv/,www.schloss-hartheim.at
Dokumentationsarchiv des österreichischen Widerstands (DÖW),http://www.doew.at/,www.schloss-hartheim.at
Imperial War Museum London,http://www.iwm.org.uk,www.schloss-hartheim.at
Jüdisches Museum Hohenems,http://www.jm-hohenems.at/,www.schloss-hartheim.at
Kunsthaus Kannen,http://www.kunsthaus-kannen.de/,www.schloss-hartheim.at
Museum of Tolerance online,http://motlc.wiesenthal.com,www.schloss-hartheim.at
Oberösterreichisches Landesarchiv,http://www.landesarchiv-ooe.at,www.schloss-hartheim.at
Österreichisches Staatsarchiv,http://www.oesta.gv.at,www.schloss-hartheim.at
Sammlung Prinzhorn – Psychiatrische Universitätsklinik Heidelberg,http://prinzhorn.uni-hd.de/,www.schloss-hartheim.at
United States Holocaust Memorial Museum,http://www.ushmm.org,www.schloss-hartheim.at
Verbund Oberösterreichischer Museen,http://www.ooemuseumsverbund.at/,www.schloss-hartheim.at
Clio online – Fachportal für Geschichtswissenschaften,http://www.historicum.net/index.php,www.schloss-hartheim.at
Du bist anders?,http://www.dubistanders.de,www.schloss-hartheim.at
education highway,http://www.eduhi.at,www.schloss-hartheim.at
Forum Oberösterreich Geschichte,http://www.ooegeschichte.at,www.schloss-hartheim.at
Forum politische Bildung,http://www.politischebildung.com,www.schloss-hartheim.at
"Georg-Eckert-Institut für internationale Schulbuchforschung, Braunschweig",http://www.gei.de,www.schloss-hartheim.at
Geschichtswissenschaften im Internet,http://www.clio-online.de/site/lang_de-DE/1/default.aspx,www.schloss-hartheim.at
"Gesellschaft für politische Aufklärung, Universität Innsbruck",http://www.uibk.ac.at/gfpa/,www.schloss-hartheim.at
Hamburger Institut für Sozialforschung,http://www.his-online.de/,www.schloss-hartheim.at
Informationszentrum Politische Bildung,http://www.politischebildung.at,www.schloss-hartheim.at
"Institut für Zeitgeschichte, Universität Wien",http://www.univie.ac.at/zeitgeschichte/,www.schloss-hartheim.at
Internationaler Suchdienst (ITS) Bad Arolsen,http://www.its-arolsen.org,www.schloss-hartheim.at
Lernen-aus-der-Geschichte,http://www.lernen-aus-der-geschichte.de,www.schloss-hartheim.at
Materialien zum Nationalsozialismus,http://www.ns-quellen.at,www.schloss-hartheim.at
Nationalsozialismus – auf Schule.at,http://www.schule.at/index.php?url_themen&top_id=384,www.schloss-hartheim.at
Nationasozialismus und Holocaust: Gedächtnis und Gegenwart,http://www.erinnern.at,www.schloss-hartheim.at
Nizkor,http://www.nizkor.org,www.schloss-hartheim.at
Österreichische Historikerkommission,http://www.historikerkommission.gv.at,www.schloss-hartheim.at
Projekt „Nationalsozialismus und Holocaust: Gedächtnis und Gegenwart“,http://www.erinnern.at,www.schloss-hartheim.at
Servicstelle Politische Bildung des bm:bwk,http://www.politik-lernen.at,www.schloss-hartheim.at
"Zeitgeschichte Informationssystem, Universität Innsbruck",http://zis.uibk.ac.at/,www.schloss-hartheim.at
Arbeitsgemeinschaft Behinderte und Medien e. V.,http://www.abm-medien.de/,www.schloss-hartheim.at
Assista,http://www.assista.org,www.schloss-hartheim.at
"Akademie für Ethik in der Medizin e.V., Göttingen",http://www.aem-online.de,www.schloss-hartheim.at
Berufliches Bildungs- und Rehabilitationszentrum Linz (BBRZ),http://www.bbrz.at/,www.schloss-hartheim.at
Bizeps-Info online,http://www.bizeps.or.at/,www.schloss-hartheim.at
"Bundesministerium für Unterricht, Kunst und Kultur",http://www.bmukk.gv.at,www.schloss-hartheim.at
Bundesministerium für Wissenschaft und Forschung,http://www.bmwf.gv.at,www.schloss-hartheim.at
Caritas Österreich,http://www.caritas.at/,www.schloss-hartheim.at
Deutsches Hygiene-Museum Dresden,http://www.dhmd.de/,www.schloss-hartheim.at
"Deutsches Referenzzentrum für Ethik in den Biowissenschaften, Bonn",http://www.drze.de/,www.schloss-hartheim.at
Ethiknet,http://www.ethiknet.de,www.schloss-hartheim.at
Evangelisches Diakoniewerk Gallneukirchen,http://www.diakoniewerk.at/,www.schloss-hartheim.at
EXIT – Sozial,http://www.exitsozial.at,www.schloss-hartheim.at
"Forschungsinstitut für angewandte Ethik, Universität Salzburg",http://www.sbg.ac.at/,www.schloss-hartheim.at
Forschungsstelle für Ethik und Wissenschaft im Dialog am Philosophischen Institut der Universität Wien,http://fewd.univie.ac.at,www.schloss-hartheim.at
Freak Radio,http://www.freak-radio.at,www.schloss-hartheim.at
Gemeinwesenintegration & Normalisierung,http://www.gin.at/,www.schloss-hartheim.at
geistigbehindert.de,http://www.geistigbehindert.de/,www.schloss-hartheim.at
Haus der Künstler Gugging,http://www.gugging.org/,www.schloss-hartheim.at
Hospizbewegung,http://www.hospiz.at,www.schloss-hartheim.at
"Institut für Sozialethik, Universität Wien",http://www.univie.ac.at/ktf/,www.schloss-hartheim.at
"Institut Hartheim, Alkoven",http://www.institut-hartheim.at,www.schloss-hartheim.at
"Institut Mensch, Ethik und Wissenschaft",http://www.imew.de/,www.schloss-hartheim.at
Integra Fachmesse für Integration und Rehabilitation,http://www.integra.at,www.schloss-hartheim.at
"Interfakultäres Zentrum für Ethik in den Wissenschaften, Universität Tübingen (IZEW)",http://www.uni-tuebingen.de/einrichtungen/zentrale-einrichtungen/internationales-zentrum-fuer-ethik-in-den-wissenschaften.html,www.schloss-hartheim.at
Kultur Formen Hartheim,http://www.kulturformen.at/,www.schloss-hartheim.at
Land Oberösterreich,http://www.ooe.gv.at/,www.schloss-hartheim.at
Landesschulrat für Oberösterreich,http://www.lsr-ooe.gv.at,www.schloss-hartheim.at
Lebenshilfe Österreich,http://www.lebenshilfe.at,www.schloss-hartheim.at
Life Tool - Technische Hilfen für Menschen mit Behinderung,http://www.lifetool.at,www.schloss-hartheim.at
No Handicap Oberösterreich,http://www.oberoesterreich.at/aktivitaeten/ganzjaehrig/barrierefrei.html,www.schloss-hartheim.at
"Österreichischer Blinden- und Sehbehindertenverband, Wien",http://www.oebsv.at,www.schloss-hartheim.at
Persönliche Assistenz GmbH,http://www.persoenliche-assistenz.at,www.schloss-hartheim.at
promente Oberösterreich,http://pmooe.at/,www.schloss-hartheim.at
Servicestelle Politische Bildung des bm:bwk,http://www.politische-bildung.at/,www.schloss-hartheim.at
Verein Miteinander,http://www.miteinander.com,www.schloss-hartheim.at
Volkshilfe Österreich,http://www.volkshilfe.at/,www.schloss-hartheim.at
Stadt Dachau,http://www.dachau.de/tourism/sights-guided-tours-in-dachau/main-objects.html?L=1,www.comiteinternationaldachau.com
Dachauer Forum,http://www.dachauer-forum.de/en/home/,www.comiteinternationaldachau.com
Dachauer Symposien,http://www.dachauer-symposium.de/,www.comiteinternationaldachau.com
Evangelische Versöhnungskirche Dachau,http://www.versoehnungskirche-dachau.de/kirche/pages/RundgangGB.htm,www.comiteinternationaldachau.com
Karmel Heilig Blut Dachau,http://www.dachau.karmelocd.de,www.comiteinternationaldachau.com
Katholische Seelsorge an der KZ-Gedenkstätte Dachau,http://www.gedenkstaettenseelsorge.de/,www.comiteinternationaldachau.com
Max Mannheimer Studienzentrum | Jugendgästehaus Dachau,http://www.jgh-dachau.de/,www.comiteinternationaldachau.com
Zum Beispiel Dachau e.V,http://www.zbdachau.de/,www.comiteinternationaldachau.com
Gedaechtnisbuch,http://www.gedaechtnisbuch.org/,www.comiteinternationaldachau.com
Gedenkstätte KZ-Dachau,http://www.kz-gedenkstaette-dachau.de/,www.comiteinternationaldachau.com
Buchenwald Memorial,http://www.buchenwald.de/index_nfl_ctde.html,www.comiteinternationaldachau.com
Memorial and Museum Sachsenhausen,http://www.stiftung-bg.de/gums/de/index.htm,www.comiteinternationaldachau.com
Mittelbau-Dora Concentration Camp Memorial,http://www.dora.de/media_en/index.html,www.comiteinternationaldachau.com
Concentration Camp Memorial Neuengamme,http://www.kz-gedenkstaette-neuengamme.de/index.php?id=19,www.comiteinternationaldachau.com
Ravensbrück Memorial Museum,http://www.ravensbrueck.de/mgr/index.html,www.comiteinternationaldachau.com
Flossenbürg Concentration Camp Memorial Site,http://www.gedenkstaette-flossenbuerg.de/,www.comiteinternationaldachau.com
Breitenau Memorial Museum,http://www.gedenkstaette-breitenau.de/main.htm,www.comiteinternationaldachau.com
Memorial and Museum Auschwitz-Birkenau,http://en.auschwitz.org/m/,www.comiteinternationaldachau.com
Hartheim Castle - Place of Learning and Remembrance,http://www.schloss-hartheim.at/,www.comiteinternationaldachau.com
Mauthausen Memorial,http://www.mauthausen-memorial.at/,www.comiteinternationaldachau.com
Dokumentationszentrum Oberer Kuhberg e.V.,http://www.dzokulm.telebus.de/,www.comiteinternationaldachau.com
Online Gedenkstätten Forum,http://www.gedenkstaettenforum.de/,www.comiteinternationaldachau.com
Struthof die Stätte des ehemaligen Konzentrationslagers Natzweiler,http://www.struthof.fr/de/empfang/,www.comiteinternationaldachau.com
Esperanto,http://www.foessmeier.name/tradukoj/kzg-dachau,www.comiteinternationaldachau.com
Evangelische Versöhnungskirche,http://versoehnungskirche-dachau.de/index.php,www.comiteinternationaldachau.com
Study-group for investigating contemporary history of Dachau,http://www.zbdachau.de/index.htm,www.comiteinternationaldachau.com
Working group of Memorial centres in Northrhine-Westphalia,http://www.ns-gedenkstaetten.de/nrw.html,www.comiteinternationaldachau.com
Dachauer Forum e.V.,http://www.dachauer-forum.de/de/home/,www.comiteinternationaldachau.com
Arbeitskreis zur Erforschung des Nationalsozialismus in Schleswig-Holstein,http://www.akens.org/,www.comiteinternationaldachau.com
"Aktionskomitee DIZ Emslandlager, Papenburg",http://www.diz-emslandlager.de/index.html,www.comiteinternationaldachau.com
Landesarbeitsgemeinschaft Gedenkstätten in Baden-Württemberg,http://www.gedenkstaetten-bw.de/,www.comiteinternationaldachau.com
Stiftung Bayerische Gedenkstätten,http://www.stiftung-bayerische-gedenkstaetten.de/,www.comiteinternationaldachau.com
Stiftung Brandenburgische Gedenkstätten,http://www.stiftung-bg.de/,www.comiteinternationaldachau.com
Stiftung Sächsische Gedenkstätten,http://www.stsg.de/,www.comiteinternationaldachau.com
"Foundation ""Topographie Des Terrors""",http://www.topographie.de/,www.comiteinternationaldachau.com
Stiftung Denkmal für die ermordeten Juden Europas,http://www.stiftung-denkmal.de/,www.comiteinternationaldachau.com
Stiftung Weiße Rose,http://www.weisse-rose-stiftung.de/,www.comiteinternationaldachau.com
Dokumentationsarchiv des österreichischen Widerstandes,http://www.doew.at/,www.comiteinternationaldachau.com
Haus der Bayerischen Geschichte (Center of Bavarian History),http://www.hdbg.de/,www.comiteinternationaldachau.com
Georg Elser Arbeitskreis,http://www.georg-elser-arbeitskreis.de/,www.comiteinternationaldachau.com
Yad Vashem,http://www.yadvashem.org/,www.comiteinternationaldachau.com
United States Holocaust Memorial Museum,http://www.ushmm.org/,www.comiteinternationaldachau.com
SintiundRoma.de,http://www.sintiundroma.de/index/,www.comiteinternationaldachau.com
KZ – Gemeinschaft Dachau,http://www.doew.at/aktuell/dachau/kz-gemeinschaft-dachau.htm,www.comiteinternationaldachau.com
Erinnerungsstätte Lager Weyer / Innviertel,http://www.lager-weyer.at/,www.doew.at
Gedenkstätte Steinhof,http://www.gedenkstaettesteinhof.at/,www.doew.at
KZ-Gedenkstätte Gusen (Mauthausen Memorial),http://www.gusen-memorial.at/,www.doew.at
KZ Gusen Memorial Committee / KZ Mauthausen-Gusen Info-Page,http://www.gusen.org/,www.doew.at
Lern- und Gedenkort Schloss Hartheim,http://www.schloss-hartheim.at/,www.doew.at
Loibl Memorial,http://loibl-memorial.uni-klu.ac.at/loibl2003.html,www.doew.at
Mauthausen Memorial. KZ-Gedenkstätte Mauthausen,http://www.mauthausen-memorial.org/,www.doew.at
Zeitgeschichte Museum und KZ-Gedenkstätte Ebensee,http://www.memorial-ebensee.at/,www.doew.at
"Bildungs- und Gedenkstätte ""Opfer der NS-Psychiatrie"" in Lüneburg",http://www.pk.lueneburg.de/gedenkstaette/,www.doew.at
Gedenkstätte Bergen-Belsen,http://www.bergenbelsen.de/,www.doew.at
"Gedenkstätte Bernburg - Gedenkstätte für die Opfer der NS-""Euthanasie""",http://www.gedenkstaette-bernburg.de/,www.doew.at
Stiftung Brandenburgische Gedenkstätten / Brandenburg-Ravensbrück-Sachsenhausen,http://www.stiftung-bg.de/,www.doew.at
Gedenkstätte Buchenwald,http://www.buchenwald.de/,www.doew.at
KZ-Gedenkstätte Dachau,http://www.kz-gedenkstaette-dachau.de/,www.doew.at
"Gedenkstätte Deutscher Widerstand, Berlin",http://www.gdw-berlin.de/,www.doew.at
Gedenkstätte Flossenbürg,http://www.gedenkstaette-flossenbuerg.de/,www.doew.at
Gedenkstättenforum,http://www.gedenkstaettenforum.de/,www.doew.at
Gedenkstätte Grafeneck,http://www.gedenkstaette-grafeneck.de/german/index1.html,www.doew.at
Gedenkstätte Hadamar,http://www.hlz.hessen.de/gedenkstaetten/texte/gedenkstaetten/hadamar.html,www.doew.at
Gedenkstätte Mittelbau-Dora,http://www.dora.de/,www.doew.at
KZ-Gedenkstätte Neuengamme,http://www.kz-gedenkstaette-neuengamme.de/,www.doew.at
Gedenkstätte KZ Osthofen,http://www.ns-dokuzentrum-rlp.de/,www.doew.at
Gedenkstätte Plötzensee,http://www.gedenkstaette-ploetzensee.de/,www.doew.at
Gedenkstätte Sonnenstein,http://www.stsg.de/main/pirna/ueberblick/einfuehrung/,www.doew.at
Haus der Wannsee-Konferenz - Gedenk- und Bildungsstätte,http://www.ghwk.de/,www.doew.at
Mahn- und Gedenkstätte Ravensbrück,http://www.ravensbrueck.de/,www.doew.at
NS-Gedenkstätten und Dokumentationszentren in Nordrhein-Westfalen,http://www.ns-gedenkstaetten.de/nrw/,www.doew.at
Gedenkort Konzentrationslager Uckermark,http://www.gedenkort-kz-uckermark.de/,www.doew.at
Stiftung Denkmal für die ermordeten Juden Europas,http://www.stiftung-denkmal.de/,www.doew.at
Stiftung Sächsische Gedenkstätten,http://www.stsg.de/,www.doew.at
Memorial and Museum Auschwitz-Birkenau,http://www.auschwitz.org.pl/,www.doew.at
Staatliches Museum Groß-Rosen,http://www.gross-rosen.pl/,www.doew.at
Staatliches Museum Majdanek,http://www.majdanek.pl/,www.doew.at
Staatliches Museum Stutthof,http://www.stutthof.pl/,www.doew.at
Centre de la mémoire Oradour-sur-Glane,http://www.oradour.org/,www.doew.at
Drancy 1941-1945,http://www.camp-de-drancy.asso.fr/,www.doew.at
Mémorial Caen,http://www.unicaen.fr/collectivite/memorial/,www.doew.at
"Anne Frank Haus - Anne Frank Stichting, Amsterdam",http://www.annefrank.org/de/,www.doew.at
Herinneringscentrum Kamp Westerbork,http://www.westerbork.nl/,www.doew.at
Nationaal Monument Kamp Vught (KZ Herzogenbusch),http://www.nmkampvught.nl/index.php?id=219,www.doew.at
Fossoli Foundation,http://www.fondazionefossoli.org,www.doew.at
La Risiera di San Sabba,http://digilander.libero.it/lopreda/risieras.htm,www.doew.at
Jasenovac Memorial Area,http://public.srce.hr/sakic/jasenovac/index.html,www.doew.at
"Jasenovac Research Institute, Brooklyn",http://www.jasenovac.org/,www.doew.at
United States Holocaust Memorial Museum - Jasenovac,http://www.ushmm.org/museum/exhibit/online/jasenovac/,www.doew.at
The Mechelen Museum of Deportation and the Resistance,http://www.cicb.be/eng/shoah/welcome.html,www.doew.at
Gedenkstätte Theresienstadt,http://www.pamatnik-terezin.cz/,www.doew.at
Instytut Pamieci Narodowej,http://www.ipn.gov.pl,www.bstu.de
Consiliul National pentru Studierea Arhivelor Securitatii,http://www.cnsas.ro/,www.bstu.de
Ustav Pamäti Naroda,https://www.upn.gov.sk/,www.bstu.de
COMDOS,https://www.comdos.bg/p/language/en/,www.bstu.de
Ústav pro studium totalitnich rezimú,https://www.ustrcr.cz/,www.bstu.de
Authority for Information about former State Security Documents (AIDISSH) in Albania,http://autoritetidosjeve.gov.al/,www.bstu.de
National Archive of Estonia,http://www.ra.ee/,www.bstu.de
National Archive of Latvia,https://www.arhivi.gov.lv/,www.bstu.de
National Archive of Lithuania,https://www.archyvai.lt/en/archives.html,www.bstu.de
The Centre for National Reconciliation,http://www.scnr.si/sl/,www.bstu.de
Archive of the Republic of Slovenia,http://www.arhiv.gov.si/,www.bstu.de
